<?xml version="1.0" encoding="utf-8"?><!-- Uploaded to: SVG Repo, www.svgrepo.com, Generator: SVG Repo Mixer Tools -->
<svg width="800px" height="800px" viewBox="0 0 24 24" fill="none" xmlns="http://www.w3.org/2000/svg">
<path d="M5 12H20" stroke="#000000" stroke-width="2" stroke-linecap="round"/>
<path d="M5 17H20" stroke="#000000" stroke-width="2" stroke-linecap="round"/>
<path d="M5 7H20" stroke="#000000" stroke-width="2" stroke-linecap="round"/>
</svg>
