<?xml version="1.0" encoding="UTF-8" standalone="no"?>
<svg
   width="675.14087"
   height="685.49829"
   viewBox="0 0 675.14087 685.49829"
   version="1.1"
   id="svg91"
   xmlns="http://www.w3.org/2000/svg"
   xmlns:svg="http://www.w3.org/2000/svg">
  <defs
     id="defs95" />
  <path
     fill="#000000"
     d="m 331.68522,5.8622 c 3.5,-4.3 9,-6.5 14.5,-5.7 46.9,6.3 83.1,46.5 83.1,95.1 0,11.2 -1.9,22 -5.5,32 h 5.5 c 35.3,0 64,28.7 64,64 0,19.1 -8.4,36.3 -21.7,48 h 13.7 c 39.8,0 72,32.2 72,72 0,23.2 -11,43.8 -28,57 34.1,5.7 60,35.3 60,71 0,39.8 -32.2,72 -72,72 h -368 c -39.8,0 -72.000003,-32.2 -72.000003,-72 0,-35.7 25.900003,-65.3 60.000003,-71 -17,-13.2 -28,-33.8 -28,-57 0,-39.8 32.2,-72 72,-72 h 13.7 c -13.3,-11.7 -21.7,-28.9 -21.7,-48 0,-35.3 28.7,-64 64,-64 h 16.2 c 44.1,-0.1 79.8,-35.9 79.8,-80 0,-9.2 -1.5,-17.9 -4.3,-26.1 -1.8,-5.2 -0.8,-11.1 2.8,-15.4 z"
     id="path89"
     style="fill:#d4aa00" />
  <path
     id="rect376"
     style="fill:#1a1a1a;fill-opacity:0.941176;stroke-width:78.1727;stroke-linecap:round;stop-color:#000000"
     d="M 31.610964,486.49108 H 649.06327 l 26.0776,199.00721 H 2.8515625e-7 Z" />
  <rect
     style="fill:#d4aa00;fill-opacity:0.941176;stroke:none;stroke-width:60;stroke-linecap:round;stop-color:#000000"
     id="rect1967"
     width="233.62924"
     height="105.81826"
     x="220.14485"
     y="542.33972" />
  <path
     id="rect2310"
     style="fill:#ffffff;fill-opacity:0.941176;stroke-width:60;stroke-linecap:round;stop-color:#000000"
     d="m 193.51603,250.27252 c 0,0 32.23066,10.03287 69.6949,15.59371 37.46423,5.56083 87.32375,6.37327 87.32375,6.37327 7.93125,0.54529 12.01596,5.69524 10.91447,13.56856 -1.10147,7.87331 -6.76129,12.58842 -16.28239,13.68939 0,0 -41.80709,-0.56862 -77.75707,-4.32784 -35.95,-3.75922 -77.02378,-17.73191 -77.02378,-17.73191 -8.74879,-2.40805 -13.29089,-9.84607 -12.18941,-17.7194 1.10148,-7.8733 6.3485,-12.01892 15.31953,-9.44578 z" />
  <path
     id="rect2310-3"
     style="fill:#ffffff;fill-opacity:0.941176;stroke-width:60;stroke-linecap:round;stop-color:#000000"
     d="m 155.89724,376.88335 c 0,0 32.03154,8.6047 58.59909,11.38423 26.56755,2.77953 61.98264,4.52983 61.98264,4.52983 7.94629,0.24204 14.06189,5.30969 13.65723,12.96374 -0.41972,7.9389 -5.15671,14.2621 -15.74781,14.30114 0,0 -18.55579,0.96741 -46.11456,-1.674 -27.55876,-2.64141 -74.46716,-14.24005 -74.46716,-14.24005 -9.8164,-2.94236 -14.32969,-9.0764 -12.95223,-17.52198 1.27972,-7.8463 7.13317,-10.54297 15.0428,-9.74291 z" />
  <rect
     style="fill:#ffffff;fill-opacity:0.941176;stroke:none;stroke-width:60;stroke-linecap:round;stop-color:#000000"
     id="rect2408"
     width="202.10442"
     height="13.237288"
     x="248.14908"
     y="548.56201"
     ry="6.6186442" />
  <rect
     style="fill:#ffffff;fill-opacity:0.941176;stroke:none;stroke-width:60.5913;stroke-linecap:round;stop-color:#000000"
     id="rect2416"
     width="25.077194"
     height="34.263535"
     x="296.21417"
     y="151.54298"
     ry="12.295075"
     transform="matrix(0.93660905,-0.35037622,0.52726677,0.8496998,0,0)" />
  <rect
     style="fill:#ffffff;fill-opacity:0.941176;stroke:none;stroke-width:60.5913;stroke-linecap:round;stop-color:#000000"
     id="rect2416-6"
     width="25.077194"
     height="34.263535"
     x="253.85695"
     y="444.43936"
     ry="12.295075"
     transform="matrix(0.9144387,-0.40472444,0.57621122,0.81730082,0,0)" />
</svg>
