<?xml version="1.0" encoding="UTF-8" standalone="no"?>
<!-- Created with Inkscape (http://www.inkscape.org/) -->

<svg
   width="110.27233mm"
   height="101.31615mm"
   viewBox="0 0 110.27233 101.31615"
   version="1.1"
   id="svg5"
   inkscape:version="1.2.2 (b0a8486541, 2022-12-01)"
   sodipodi:docname="chewingthoroughly.svg"
   inkscape:export-filename="chewingthoroughly.svg"
   inkscape:export-xdpi="96"
   inkscape:export-ydpi="96"
   xmlns:inkscape="http://www.inkscape.org/namespaces/inkscape"
   xmlns:sodipodi="http://sodipodi.sourceforge.net/DTD/sodipodi-0.dtd"
   xmlns="http://www.w3.org/2000/svg"
   xmlns:svg="http://www.w3.org/2000/svg">
  <sodipodi:namedview
     id="namedview7"
     pagecolor="#505050"
     bordercolor="#eeeeee"
     borderopacity="1"
     inkscape:showpageshadow="0"
     inkscape:pageopacity="0"
     inkscape:pagecheckerboard="0"
     inkscape:deskcolor="#505050"
     inkscape:document-units="mm"
     showgrid="false"
     inkscape:zoom="1.2392008"
     inkscape:cx="429.30897"
     inkscape:cy="425.27411"
     inkscape:window-width="1453"
     inkscape:window-height="1406"
     inkscape:window-x="3006"
     inkscape:window-y="13"
     inkscape:window-maximized="1"
     inkscape:current-layer="layer1"
     showguides="false" />
  <defs
     id="defs2">
    <inkscape:path-effect
       effect="skeletal"
       id="path-effect1785"
       is_visible="true"
       lpeversion="1"
       pattern="m 54.490366,124.97294 a 0.05685203,0.05685203 0 0 1 -0.05685,0.0569 0.05685203,0.05685203 0 0 1 -0.05685,-0.0569 0.05685203,0.05685203 0 0 1 0.05685,-0.0568 0.05685203,0.05685203 0 0 1 0.05685,0.0568 z"
       copytype="single_stretched"
       prop_scale="1"
       scale_y_rel="false"
       spacing="0"
       normal_offset="0"
       tang_offset="0"
       prop_units="false"
       vertical_pattern="false"
       hide_knot="false"
       fuse_tolerance="0" />
    <inkscape:path-effect
       effect="skeletal"
       id="path-effect1767"
       is_visible="true"
       lpeversion="1"
       pattern="m 54.490366,124.97294 a 0.05685203,0.05685203 0 0 1 -0.05685,0.0569 0.05685203,0.05685203 0 0 1 -0.05685,-0.0569 0.05685203,0.05685203 0 0 1 0.05685,-0.0568 0.05685203,0.05685203 0 0 1 0.05685,0.0568 z"
       copytype="single_stretched"
       prop_scale="1"
       scale_y_rel="false"
       spacing="0"
       normal_offset="0"
       tang_offset="0"
       prop_units="false"
       vertical_pattern="false"
       hide_knot="false"
       fuse_tolerance="0" />
    <inkscape:path-effect
       effect="skeletal"
       id="path-effect1749"
       is_visible="true"
       lpeversion="1"
       pattern="m 54.490366,124.97294 a 0.05685203,0.05685203 0 0 1 -0.05685,0.0569 0.05685203,0.05685203 0 0 1 -0.05685,-0.0569 0.05685203,0.05685203 0 0 1 0.05685,-0.0568 0.05685203,0.05685203 0 0 1 0.05685,0.0568 z"
       copytype="single_stretched"
       prop_scale="1"
       scale_y_rel="false"
       spacing="0"
       normal_offset="0"
       tang_offset="0"
       prop_units="false"
       vertical_pattern="false"
       hide_knot="false"
       fuse_tolerance="0" />
    <inkscape:path-effect
       effect="skeletal"
       id="path-effect1713"
       is_visible="true"
       lpeversion="1"
       pattern="m 54.490366,124.97294 a 0.05685203,0.05685203 0 0 1 -0.05685,0.0569 0.05685203,0.05685203 0 0 1 -0.05685,-0.0569 0.05685203,0.05685203 0 0 1 0.05685,-0.0568 0.05685203,0.05685203 0 0 1 0.05685,0.0568 z"
       copytype="single_stretched"
       prop_scale="1"
       scale_y_rel="false"
       spacing="0"
       normal_offset="0"
       tang_offset="0"
       prop_units="false"
       vertical_pattern="false"
       hide_knot="false"
       fuse_tolerance="0" />
    <inkscape:path-effect
       effect="skeletal"
       id="path-effect1695"
       is_visible="true"
       lpeversion="1"
       pattern="m 54.490366,124.97294 a 0.05685203,0.05685203 0 0 1 -0.05685,0.0569 0.05685203,0.05685203 0 0 1 -0.05685,-0.0569 0.05685203,0.05685203 0 0 1 0.05685,-0.0568 0.05685203,0.05685203 0 0 1 0.05685,0.0568 z"
       copytype="single_stretched"
       prop_scale="1"
       scale_y_rel="false"
       spacing="0"
       normal_offset="0"
       tang_offset="0"
       prop_units="false"
       vertical_pattern="false"
       hide_knot="false"
       fuse_tolerance="0" />
    <inkscape:path-effect
       effect="skeletal"
       id="path-effect1677"
       is_visible="true"
       lpeversion="1"
       pattern="m 54.490366,124.97294 a 0.05685203,0.05685203 0 0 1 -0.05685,0.0569 0.05685203,0.05685203 0 0 1 -0.05685,-0.0569 0.05685203,0.05685203 0 0 1 0.05685,-0.0568 0.05685203,0.05685203 0 0 1 0.05685,0.0568 z"
       copytype="single_stretched"
       prop_scale="1"
       scale_y_rel="false"
       spacing="0"
       normal_offset="0"
       tang_offset="0"
       prop_units="false"
       vertical_pattern="false"
       hide_knot="false"
       fuse_tolerance="0" />
    <inkscape:path-effect
       effect="skeletal"
       id="path-effect1659"
       is_visible="true"
       lpeversion="1"
       pattern="m 54.490366,124.97294 a 0.05685203,0.05685203 0 0 1 -0.05685,0.0569 0.05685203,0.05685203 0 0 1 -0.05685,-0.0569 0.05685203,0.05685203 0 0 1 0.05685,-0.0568 0.05685203,0.05685203 0 0 1 0.05685,0.0568 z"
       copytype="single_stretched"
       prop_scale="1"
       scale_y_rel="false"
       spacing="0"
       normal_offset="0"
       tang_offset="0"
       prop_units="false"
       vertical_pattern="false"
       hide_knot="false"
       fuse_tolerance="0" />
    <inkscape:path-effect
       effect="skeletal"
       id="path-effect1623"
       is_visible="true"
       lpeversion="1"
       pattern="m 54.490366,124.97294 a 0.05685203,0.05685203 0 0 1 -0.05685,0.0569 0.05685203,0.05685203 0 0 1 -0.05685,-0.0569 0.05685203,0.05685203 0 0 1 0.05685,-0.0568 0.05685203,0.05685203 0 0 1 0.05685,0.0568 z"
       copytype="single_stretched"
       prop_scale="1"
       scale_y_rel="false"
       spacing="0"
       normal_offset="0"
       tang_offset="0"
       prop_units="false"
       vertical_pattern="false"
       hide_knot="false"
       fuse_tolerance="0" />
    <inkscape:path-effect
       effect="skeletal"
       id="path-effect1605"
       is_visible="true"
       lpeversion="1"
       pattern="m 54.490366,124.97294 a 0.05685203,0.05685203 0 0 1 -0.05685,0.0569 0.05685203,0.05685203 0 0 1 -0.05685,-0.0569 0.05685203,0.05685203 0 0 1 0.05685,-0.0568 0.05685203,0.05685203 0 0 1 0.05685,0.0568 z"
       copytype="single_stretched"
       prop_scale="1"
       scale_y_rel="false"
       spacing="0"
       normal_offset="0"
       tang_offset="0"
       prop_units="false"
       vertical_pattern="false"
       hide_knot="false"
       fuse_tolerance="0" />
    <inkscape:path-effect
       effect="skeletal"
       id="path-effect1587"
       is_visible="true"
       lpeversion="1"
       pattern="m 54.490366,124.97294 a 0.05685203,0.05685203 0 0 1 -0.05685,0.0569 0.05685203,0.05685203 0 0 1 -0.05685,-0.0569 0.05685203,0.05685203 0 0 1 0.05685,-0.0568 0.05685203,0.05685203 0 0 1 0.05685,0.0568 z"
       copytype="single_stretched"
       prop_scale="1"
       scale_y_rel="false"
       spacing="0"
       normal_offset="0"
       tang_offset="0"
       prop_units="false"
       vertical_pattern="false"
       hide_knot="false"
       fuse_tolerance="0" />
    <inkscape:path-effect
       effect="skeletal"
       id="path-effect1569"
       is_visible="true"
       lpeversion="1"
       pattern="m 54.490366,124.97294 a 0.05685203,0.05685203 0 0 1 -0.05685,0.0569 0.05685203,0.05685203 0 0 1 -0.05685,-0.0569 0.05685203,0.05685203 0 0 1 0.05685,-0.0568 0.05685203,0.05685203 0 0 1 0.05685,0.0568 z"
       copytype="single_stretched"
       prop_scale="1"
       scale_y_rel="false"
       spacing="0"
       normal_offset="0"
       tang_offset="0"
       prop_units="false"
       vertical_pattern="false"
       hide_knot="false"
       fuse_tolerance="0" />
    <inkscape:path-effect
       effect="skeletal"
       id="path-effect1533"
       is_visible="true"
       lpeversion="1"
       pattern="m 54.490366,124.97294 a 0.05685203,0.05685203 0 0 1 -0.05685,0.0569 0.05685203,0.05685203 0 0 1 -0.05685,-0.0569 0.05685203,0.05685203 0 0 1 0.05685,-0.0568 0.05685203,0.05685203 0 0 1 0.05685,0.0568 z"
       copytype="single_stretched"
       prop_scale="1"
       scale_y_rel="false"
       spacing="0"
       normal_offset="0"
       tang_offset="0"
       prop_units="false"
       vertical_pattern="false"
       hide_knot="false"
       fuse_tolerance="0" />
    <inkscape:path-effect
       effect="skeletal"
       id="path-effect1515"
       is_visible="true"
       lpeversion="1"
       pattern="m 54.490366,124.97294 a 0.05685203,0.05685203 0 0 1 -0.05685,0.0569 0.05685203,0.05685203 0 0 1 -0.05685,-0.0569 0.05685203,0.05685203 0 0 1 0.05685,-0.0568 0.05685203,0.05685203 0 0 1 0.05685,0.0568 z"
       copytype="single_stretched"
       prop_scale="1"
       scale_y_rel="false"
       spacing="0"
       normal_offset="0"
       tang_offset="0"
       prop_units="false"
       vertical_pattern="false"
       hide_knot="false"
       fuse_tolerance="0" />
    <inkscape:path-effect
       effect="skeletal"
       id="path-effect1497"
       is_visible="true"
       lpeversion="1"
       pattern="m 54.490366,124.97294 a 0.05685203,0.05685203 0 0 1 -0.05685,0.0569 0.05685203,0.05685203 0 0 1 -0.05685,-0.0569 0.05685203,0.05685203 0 0 1 0.05685,-0.0568 0.05685203,0.05685203 0 0 1 0.05685,0.0568 z"
       copytype="single_stretched"
       prop_scale="1"
       scale_y_rel="false"
       spacing="0"
       normal_offset="0"
       tang_offset="0"
       prop_units="false"
       vertical_pattern="false"
       hide_knot="false"
       fuse_tolerance="0" />
    <inkscape:path-effect
       effect="skeletal"
       id="path-effect1479"
       is_visible="true"
       lpeversion="1"
       pattern="m 54.490366,124.97294 a 0.05685203,0.05685203 0 0 1 -0.05685,0.0569 0.05685203,0.05685203 0 0 1 -0.05685,-0.0569 0.05685203,0.05685203 0 0 1 0.05685,-0.0568 0.05685203,0.05685203 0 0 1 0.05685,0.0568 z"
       copytype="single_stretched"
       prop_scale="1"
       scale_y_rel="false"
       spacing="0"
       normal_offset="0"
       tang_offset="0"
       prop_units="false"
       vertical_pattern="false"
       hide_knot="false"
       fuse_tolerance="0" />
    <inkscape:path-effect
       effect="skeletal"
       id="path-effect1461"
       is_visible="true"
       lpeversion="1"
       pattern="m 54.490366,124.97294 a 0.05685203,0.05685203 0 0 1 -0.05685,0.0569 0.05685203,0.05685203 0 0 1 -0.05685,-0.0569 0.05685203,0.05685203 0 0 1 0.05685,-0.0568 0.05685203,0.05685203 0 0 1 0.05685,0.0568 z"
       copytype="single_stretched"
       prop_scale="1"
       scale_y_rel="false"
       spacing="0"
       normal_offset="0"
       tang_offset="0"
       prop_units="false"
       vertical_pattern="false"
       hide_knot="false"
       fuse_tolerance="0" />
    <inkscape:path-effect
       effect="skeletal"
       id="path-effect1443"
       is_visible="true"
       lpeversion="1"
       pattern="m 54.490366,124.97294 a 0.05685203,0.05685203 0 0 1 -0.05685,0.0569 0.05685203,0.05685203 0 0 1 -0.05685,-0.0569 0.05685203,0.05685203 0 0 1 0.05685,-0.0568 0.05685203,0.05685203 0 0 1 0.05685,0.0568 z"
       copytype="single_stretched"
       prop_scale="1"
       scale_y_rel="false"
       spacing="0"
       normal_offset="0"
       tang_offset="0"
       prop_units="false"
       vertical_pattern="false"
       hide_knot="false"
       fuse_tolerance="0" />
    <inkscape:path-effect
       effect="skeletal"
       id="path-effect1407"
       is_visible="true"
       lpeversion="1"
       pattern="m 54.490366,124.97294 a 0.05685203,0.05685203 0 0 1 -0.05685,0.0569 0.05685203,0.05685203 0 0 1 -0.05685,-0.0569 0.05685203,0.05685203 0 0 1 0.05685,-0.0568 0.05685203,0.05685203 0 0 1 0.05685,0.0568 z"
       copytype="single_stretched"
       prop_scale="1"
       scale_y_rel="false"
       spacing="0"
       normal_offset="0"
       tang_offset="0"
       prop_units="false"
       vertical_pattern="false"
       hide_knot="false"
       fuse_tolerance="0" />
    <inkscape:path-effect
       effect="skeletal"
       id="path-effect1389"
       is_visible="true"
       lpeversion="1"
       pattern="m 54.490366,124.97294 a 0.05685203,0.05685203 0 0 1 -0.05685,0.0569 0.05685203,0.05685203 0 0 1 -0.05685,-0.0569 0.05685203,0.05685203 0 0 1 0.05685,-0.0568 0.05685203,0.05685203 0 0 1 0.05685,0.0568 z"
       copytype="single_stretched"
       prop_scale="1"
       scale_y_rel="false"
       spacing="0"
       normal_offset="0"
       tang_offset="0"
       prop_units="false"
       vertical_pattern="false"
       hide_knot="false"
       fuse_tolerance="0" />
    <inkscape:path-effect
       effect="skeletal"
       id="path-effect1371"
       is_visible="true"
       lpeversion="1"
       pattern="m 54.490366,124.97294 a 0.05685203,0.05685203 0 0 1 -0.05685,0.0569 0.05685203,0.05685203 0 0 1 -0.05685,-0.0569 0.05685203,0.05685203 0 0 1 0.05685,-0.0568 0.05685203,0.05685203 0 0 1 0.05685,0.0568 z"
       copytype="single_stretched"
       prop_scale="1"
       scale_y_rel="false"
       spacing="0"
       normal_offset="0"
       tang_offset="0"
       prop_units="false"
       vertical_pattern="false"
       hide_knot="false"
       fuse_tolerance="0" />
    <inkscape:path-effect
       effect="skeletal"
       id="path-effect1353"
       is_visible="true"
       lpeversion="1"
       pattern="m 54.490366,124.97294 a 0.05685203,0.05685203 0 0 1 -0.05685,0.0569 0.05685203,0.05685203 0 0 1 -0.05685,-0.0569 0.05685203,0.05685203 0 0 1 0.05685,-0.0568 0.05685203,0.05685203 0 0 1 0.05685,0.0568 z"
       copytype="single_stretched"
       prop_scale="1"
       scale_y_rel="false"
       spacing="0"
       normal_offset="0"
       tang_offset="0"
       prop_units="false"
       vertical_pattern="false"
       hide_knot="false"
       fuse_tolerance="0" />
    <inkscape:path-effect
       effect="skeletal"
       id="path-effect1317"
       is_visible="true"
       lpeversion="1"
       pattern="m 54.490366,124.97294 a 0.05685203,0.05685203 0 0 1 -0.05685,0.0569 0.05685203,0.05685203 0 0 1 -0.05685,-0.0569 0.05685203,0.05685203 0 0 1 0.05685,-0.0568 0.05685203,0.05685203 0 0 1 0.05685,0.0568 z"
       copytype="single_stretched"
       prop_scale="1"
       scale_y_rel="false"
       spacing="0"
       normal_offset="0"
       tang_offset="0"
       prop_units="false"
       vertical_pattern="false"
       hide_knot="false"
       fuse_tolerance="0" />
    <inkscape:path-effect
       effect="skeletal"
       id="path-effect1299"
       is_visible="true"
       lpeversion="1"
       pattern="m 54.490366,124.97294 a 0.05685203,0.05685203 0 0 1 -0.05685,0.0569 0.05685203,0.05685203 0 0 1 -0.05685,-0.0569 0.05685203,0.05685203 0 0 1 0.05685,-0.0568 0.05685203,0.05685203 0 0 1 0.05685,0.0568 z"
       copytype="single_stretched"
       prop_scale="1"
       scale_y_rel="false"
       spacing="0"
       normal_offset="0"
       tang_offset="0"
       prop_units="false"
       vertical_pattern="false"
       hide_knot="false"
       fuse_tolerance="0" />
    <inkscape:path-effect
       effect="skeletal"
       id="path-effect1281"
       is_visible="true"
       lpeversion="1"
       pattern="m 54.490366,124.97294 a 0.05685203,0.05685203 0 0 1 -0.05685,0.0569 0.05685203,0.05685203 0 0 1 -0.05685,-0.0569 0.05685203,0.05685203 0 0 1 0.05685,-0.0568 0.05685203,0.05685203 0 0 1 0.05685,0.0568 z"
       copytype="single_stretched"
       prop_scale="1"
       scale_y_rel="false"
       spacing="0"
       normal_offset="0"
       tang_offset="0"
       prop_units="false"
       vertical_pattern="false"
       hide_knot="false"
       fuse_tolerance="0" />
    <inkscape:path-effect
       effect="skeletal"
       id="path-effect1263"
       is_visible="true"
       lpeversion="1"
       pattern="m 54.490366,124.97294 a 0.05685203,0.05685203 0 0 1 -0.05685,0.0569 0.05685203,0.05685203 0 0 1 -0.05685,-0.0569 0.05685203,0.05685203 0 0 1 0.05685,-0.0568 0.05685203,0.05685203 0 0 1 0.05685,0.0568 z"
       copytype="single_stretched"
       prop_scale="1"
       scale_y_rel="false"
       spacing="0"
       normal_offset="0"
       tang_offset="0"
       prop_units="false"
       vertical_pattern="false"
       hide_knot="false"
       fuse_tolerance="0" />
    <inkscape:path-effect
       effect="skeletal"
       id="path-effect1245"
       is_visible="true"
       lpeversion="1"
       pattern="m 54.490366,124.97294 a 0.05685203,0.05685203 0 0 1 -0.05685,0.0569 0.05685203,0.05685203 0 0 1 -0.05685,-0.0569 0.05685203,0.05685203 0 0 1 0.05685,-0.0568 0.05685203,0.05685203 0 0 1 0.05685,0.0568 z"
       copytype="single_stretched"
       prop_scale="1"
       scale_y_rel="false"
       spacing="0"
       normal_offset="0"
       tang_offset="0"
       prop_units="false"
       vertical_pattern="false"
       hide_knot="false"
       fuse_tolerance="0" />
    <inkscape:path-effect
       effect="skeletal"
       id="path-effect1227"
       is_visible="true"
       lpeversion="1"
       pattern="m 54.490366,124.97294 a 0.05685203,0.05685203 0 0 1 -0.05685,0.0569 0.05685203,0.05685203 0 0 1 -0.05685,-0.0569 0.05685203,0.05685203 0 0 1 0.05685,-0.0568 0.05685203,0.05685203 0 0 1 0.05685,0.0568 z"
       copytype="single_stretched"
       prop_scale="1"
       scale_y_rel="false"
       spacing="0"
       normal_offset="0"
       tang_offset="0"
       prop_units="false"
       vertical_pattern="false"
       hide_knot="false"
       fuse_tolerance="0" />
    <inkscape:path-effect
       effect="skeletal"
       id="path-effect1209"
       is_visible="true"
       lpeversion="1"
       pattern="m 54.490366,124.97294 a 0.05685203,0.05685203 0 0 1 -0.05685,0.0569 0.05685203,0.05685203 0 0 1 -0.05685,-0.0569 0.05685203,0.05685203 0 0 1 0.05685,-0.0568 0.05685203,0.05685203 0 0 1 0.05685,0.0568 z"
       copytype="single_stretched"
       prop_scale="1"
       scale_y_rel="false"
       spacing="0"
       normal_offset="0"
       tang_offset="0"
       prop_units="false"
       vertical_pattern="false"
       hide_knot="false"
       fuse_tolerance="0" />
    <inkscape:path-effect
       effect="skeletal"
       id="path-effect1173"
       is_visible="true"
       lpeversion="1"
       pattern="m 54.490366,124.97294 a 0.05685203,0.05685203 0 0 1 -0.05685,0.0569 0.05685203,0.05685203 0 0 1 -0.05685,-0.0569 0.05685203,0.05685203 0 0 1 0.05685,-0.0568 0.05685203,0.05685203 0 0 1 0.05685,0.0568 z"
       copytype="single_stretched"
       prop_scale="1"
       scale_y_rel="false"
       spacing="0"
       normal_offset="0"
       tang_offset="0"
       prop_units="false"
       vertical_pattern="false"
       hide_knot="false"
       fuse_tolerance="0" />
    <inkscape:path-effect
       effect="skeletal"
       id="path-effect1155"
       is_visible="true"
       lpeversion="1"
       pattern="m 54.490366,124.97294 a 0.05685203,0.05685203 0 0 1 -0.05685,0.0569 0.05685203,0.05685203 0 0 1 -0.05685,-0.0569 0.05685203,0.05685203 0 0 1 0.05685,-0.0568 0.05685203,0.05685203 0 0 1 0.05685,0.0568 z"
       copytype="single_stretched"
       prop_scale="1"
       scale_y_rel="false"
       spacing="0"
       normal_offset="0"
       tang_offset="0"
       prop_units="false"
       vertical_pattern="false"
       hide_knot="false"
       fuse_tolerance="0" />
    <inkscape:path-effect
       effect="skeletal"
       id="path-effect1137"
       is_visible="true"
       lpeversion="1"
       pattern="m 54.490366,124.97294 a 0.05685203,0.05685203 0 0 1 -0.05685,0.0569 0.05685203,0.05685203 0 0 1 -0.05685,-0.0569 0.05685203,0.05685203 0 0 1 0.05685,-0.0568 0.05685203,0.05685203 0 0 1 0.05685,0.0568 z"
       copytype="single_stretched"
       prop_scale="1"
       scale_y_rel="false"
       spacing="0"
       normal_offset="0"
       tang_offset="0"
       prop_units="false"
       vertical_pattern="false"
       hide_knot="false"
       fuse_tolerance="0" />
    <inkscape:path-effect
       effect="skeletal"
       id="path-effect1119"
       is_visible="true"
       lpeversion="1"
       pattern="m 54.490366,124.97294 a 0.05685203,0.05685203 0 0 1 -0.05685,0.0569 0.05685203,0.05685203 0 0 1 -0.05685,-0.0569 0.05685203,0.05685203 0 0 1 0.05685,-0.0568 0.05685203,0.05685203 0 0 1 0.05685,0.0568 z"
       copytype="single_stretched"
       prop_scale="1"
       scale_y_rel="false"
       spacing="0"
       normal_offset="0"
       tang_offset="0"
       prop_units="false"
       vertical_pattern="false"
       hide_knot="false"
       fuse_tolerance="0" />
    <inkscape:path-effect
       effect="skeletal"
       id="path-effect1101"
       is_visible="true"
       lpeversion="1"
       pattern="m 54.490366,124.97294 a 0.05685203,0.05685203 0 0 1 -0.05685,0.0569 0.05685203,0.05685203 0 0 1 -0.05685,-0.0569 0.05685203,0.05685203 0 0 1 0.05685,-0.0568 0.05685203,0.05685203 0 0 1 0.05685,0.0568 z"
       copytype="single_stretched"
       prop_scale="1"
       scale_y_rel="false"
       spacing="0"
       normal_offset="0"
       tang_offset="0"
       prop_units="false"
       vertical_pattern="false"
       hide_knot="false"
       fuse_tolerance="0" />
    <inkscape:path-effect
       effect="skeletal"
       id="path-effect1083"
       is_visible="true"
       lpeversion="1"
       pattern="m 54.490366,124.97294 a 0.05685203,0.05685203 0 0 1 -0.05685,0.0569 0.05685203,0.05685203 0 0 1 -0.05685,-0.0569 0.05685203,0.05685203 0 0 1 0.05685,-0.0568 0.05685203,0.05685203 0 0 1 0.05685,0.0568 z"
       copytype="single_stretched"
       prop_scale="1"
       scale_y_rel="false"
       spacing="0"
       normal_offset="0"
       tang_offset="0"
       prop_units="false"
       vertical_pattern="false"
       hide_knot="false"
       fuse_tolerance="0" />
    <inkscape:path-effect
       effect="skeletal"
       id="path-effect1065"
       is_visible="true"
       lpeversion="1"
       pattern="m 54.490366,124.97294 a 0.05685203,0.05685203 0 0 1 -0.05685,0.0569 0.05685203,0.05685203 0 0 1 -0.05685,-0.0569 0.05685203,0.05685203 0 0 1 0.05685,-0.0568 0.05685203,0.05685203 0 0 1 0.05685,0.0568 z"
       copytype="single_stretched"
       prop_scale="1"
       scale_y_rel="false"
       spacing="0"
       normal_offset="0"
       tang_offset="0"
       prop_units="false"
       vertical_pattern="false"
       hide_knot="false"
       fuse_tolerance="0" />
    <inkscape:path-effect
       effect="skeletal"
       id="path-effect1047"
       is_visible="true"
       lpeversion="1"
       pattern="m 54.490366,124.97294 a 0.05685203,0.05685203 0 0 1 -0.05685,0.0569 0.05685203,0.05685203 0 0 1 -0.05685,-0.0569 0.05685203,0.05685203 0 0 1 0.05685,-0.0568 0.05685203,0.05685203 0 0 1 0.05685,0.0568 z"
       copytype="single_stretched"
       prop_scale="1"
       scale_y_rel="false"
       spacing="0"
       normal_offset="0"
       tang_offset="0"
       prop_units="false"
       vertical_pattern="false"
       hide_knot="false"
       fuse_tolerance="0" />
    <inkscape:path-effect
       effect="skeletal"
       id="path-effect1029"
       is_visible="true"
       lpeversion="1"
       pattern="m 54.490366,124.97294 a 0.05685203,0.05685203 0 0 1 -0.05685,0.0569 0.05685203,0.05685203 0 0 1 -0.05685,-0.0569 0.05685203,0.05685203 0 0 1 0.05685,-0.0568 0.05685203,0.05685203 0 0 1 0.05685,0.0568 z"
       copytype="single_stretched"
       prop_scale="1"
       scale_y_rel="false"
       spacing="0"
       normal_offset="0"
       tang_offset="0"
       prop_units="false"
       vertical_pattern="false"
       hide_knot="false"
       fuse_tolerance="0" />
    <inkscape:path-effect
       effect="skeletal"
       id="path-effect1011"
       is_visible="true"
       lpeversion="1"
       pattern="m 54.490366,124.97294 a 0.05685203,0.05685203 0 0 1 -0.05685,0.0569 0.05685203,0.05685203 0 0 1 -0.05685,-0.0569 0.05685203,0.05685203 0 0 1 0.05685,-0.0568 0.05685203,0.05685203 0 0 1 0.05685,0.0568 z"
       copytype="single_stretched"
       prop_scale="1"
       scale_y_rel="false"
       spacing="0"
       normal_offset="0"
       tang_offset="0"
       prop_units="false"
       vertical_pattern="false"
       hide_knot="false"
       fuse_tolerance="0" />
    <inkscape:path-effect
       effect="skeletal"
       id="path-effect993"
       is_visible="true"
       lpeversion="1"
       pattern="m 54.490366,124.97294 a 0.05685203,0.05685203 0 0 1 -0.05685,0.0569 0.05685203,0.05685203 0 0 1 -0.05685,-0.0569 0.05685203,0.05685203 0 0 1 0.05685,-0.0568 0.05685203,0.05685203 0 0 1 0.05685,0.0568 z"
       copytype="single_stretched"
       prop_scale="1"
       scale_y_rel="false"
       spacing="0"
       normal_offset="0"
       tang_offset="0"
       prop_units="false"
       vertical_pattern="false"
       hide_knot="false"
       fuse_tolerance="0" />
    <inkscape:path-effect
       effect="skeletal"
       id="path-effect975"
       is_visible="true"
       lpeversion="1"
       pattern="m 54.490366,124.97294 a 0.05685203,0.05685203 0 0 1 -0.05685,0.0569 0.05685203,0.05685203 0 0 1 -0.05685,-0.0569 0.05685203,0.05685203 0 0 1 0.05685,-0.0568 0.05685203,0.05685203 0 0 1 0.05685,0.0568 z"
       copytype="single_stretched"
       prop_scale="1"
       scale_y_rel="false"
       spacing="0"
       normal_offset="0"
       tang_offset="0"
       prop_units="false"
       vertical_pattern="false"
       hide_knot="false"
       fuse_tolerance="0" />
    <inkscape:path-effect
       effect="skeletal"
       id="path-effect957"
       is_visible="true"
       lpeversion="1"
       pattern="m 54.490366,124.97294 a 0.05685203,0.05685203 0 0 1 -0.05685,0.0569 0.05685203,0.05685203 0 0 1 -0.05685,-0.0569 0.05685203,0.05685203 0 0 1 0.05685,-0.0568 0.05685203,0.05685203 0 0 1 0.05685,0.0568 z"
       copytype="single_stretched"
       prop_scale="1"
       scale_y_rel="false"
       spacing="0"
       normal_offset="0"
       tang_offset="0"
       prop_units="false"
       vertical_pattern="false"
       hide_knot="false"
       fuse_tolerance="0" />
    <inkscape:path-effect
       effect="skeletal"
       id="path-effect939"
       is_visible="true"
       lpeversion="1"
       pattern="m 54.490366,124.97294 a 0.05685203,0.05685203 0 0 1 -0.05685,0.0569 0.05685203,0.05685203 0 0 1 -0.05685,-0.0569 0.05685203,0.05685203 0 0 1 0.05685,-0.0568 0.05685203,0.05685203 0 0 1 0.05685,0.0568 z"
       copytype="single_stretched"
       prop_scale="1"
       scale_y_rel="false"
       spacing="0"
       normal_offset="0"
       tang_offset="0"
       prop_units="false"
       vertical_pattern="false"
       hide_knot="false"
       fuse_tolerance="0" />
    <inkscape:path-effect
       effect="skeletal"
       id="path-effect921"
       is_visible="true"
       lpeversion="1"
       pattern="m 54.490366,124.97294 a 0.05685203,0.05685203 0 0 1 -0.05685,0.0569 0.05685203,0.05685203 0 0 1 -0.05685,-0.0569 0.05685203,0.05685203 0 0 1 0.05685,-0.0568 0.05685203,0.05685203 0 0 1 0.05685,0.0568 z"
       copytype="single_stretched"
       prop_scale="1"
       scale_y_rel="false"
       spacing="0"
       normal_offset="0"
       tang_offset="0"
       prop_units="false"
       vertical_pattern="false"
       hide_knot="false"
       fuse_tolerance="0" />
    <inkscape:path-effect
       effect="skeletal"
       id="path-effect903"
       is_visible="true"
       lpeversion="1"
       pattern="m 54.490366,124.97294 a 0.05685203,0.05685203 0 0 1 -0.05685,0.0569 0.05685203,0.05685203 0 0 1 -0.05685,-0.0569 0.05685203,0.05685203 0 0 1 0.05685,-0.0568 0.05685203,0.05685203 0 0 1 0.05685,0.0568 z"
       copytype="single_stretched"
       prop_scale="1"
       scale_y_rel="false"
       spacing="0"
       normal_offset="0"
       tang_offset="0"
       prop_units="false"
       vertical_pattern="false"
       hide_knot="false"
       fuse_tolerance="0" />
    <inkscape:path-effect
       effect="skeletal"
       id="path-effect885"
       is_visible="true"
       lpeversion="1"
       pattern="m 54.490366,124.97294 a 0.05685203,0.05685203 0 0 1 -0.05685,0.0569 0.05685203,0.05685203 0 0 1 -0.05685,-0.0569 0.05685203,0.05685203 0 0 1 0.05685,-0.0568 0.05685203,0.05685203 0 0 1 0.05685,0.0568 z"
       copytype="single_stretched"
       prop_scale="1"
       scale_y_rel="false"
       spacing="0"
       normal_offset="0"
       tang_offset="0"
       prop_units="false"
       vertical_pattern="false"
       hide_knot="false"
       fuse_tolerance="0" />
    <rect
       x="43.864372"
       y="531.89752"
       width="281.90732"
       height="184.7522"
       id="rect236" />
  </defs>
  <g
     inkscape:label="Layer 1"
     inkscape:groupmode="layer"
     id="layer1"
     transform="translate(-55.604837,-67.061071)">
    <g
       aria-label="Chewing
Thor-
oughly!!"
       transform="matrix(0.26458333,0,0,0.26458333,61.867056,-43.353934)"
       id="text234"
       style="font-size:40px;line-height:1.25;font-family:'CC Wild Words';-inkscape-font-specification:'CC Wild Words';white-space:pre;shape-inside:url(#rect236);display:inline">
      <path
         d="m 116.74707,553.48765 q -0.22461,0.9082 -0.84961,1.37695 -0.625,0.45899 -1.43555,0.45899 -0.98632,0 -1.66992,-0.72266 -0.68359,-0.72266 -0.68359,-2.11914 0.55664,-3.47656 0.55664,-3.55469 0,-0.47851 -0.32227,-0.47851 -0.13672,0 -0.75195,0.19531 -0.60547,0.19531 -0.9668,0.2832 -1.1914,0.45899 -2.95898,1.89453 -1.76758,1.42578 -3.50586,3.36914 -1.72852,1.9336 -3.02734,4.04297 -1.289067,2.10938 -1.708988,3.93555 -0.673829,3.05664 -0.673829,3.79883 0,0.75195 0.673829,1.79687 1.494138,2.15821 4.326168,2.15821 2.25586,0 4.7461,-1.07422 2.5,-1.08399 5.69336,-2.88086 0.97656,-0.72266 1.95312,-0.72266 1.18164,0 1.48438,1.12305 0.11718,0.53711 0.11718,1.15234 0,2.22656 -1.91406,3.16406 -1.01562,0.47852 -2.43164,1.29883 -1.41601,0.82031 -2.61719,1.36719 -1.20117,0.54687 -3.47656,1.25 -1.29883,0.40039 -2.76367,0.40039 -1.9043,0 -3.71094,-0.74219 -1.796873,-0.75195 -3.14453,-2.13867 -1.33789,-1.38672 -1.982422,-3.23242 -0.634765,-1.73828 -0.634765,-3.60352 0,-5.12695 5.312497,-12.95898 2.46094,-3.65234 5.42969,-5.94727 2.97852,-2.30468 5.6543,-2.45117 0.16601,0 0.45898,-0.0195 0.29297,-0.0195 0.41992,-0.0195 1.52344,0 2.63672,0.43945 1.11328,0.43946 1.75781,1.55274 0.64454,1.11328 0.64454,3.04687 0,1.89453 -0.63477,4.56055 z"
         style="text-align:center;text-anchor:middle"
         id="path2437" />
      <path
         d="m 145.37988,572.40366 q 0,3.08594 -1.99218,3.08594 -0.33204,0.0781 -0.48829,0.0781 -0.61523,0 -1.04492,-0.43946 -0.42969,-0.43945 -0.42969,-1.04492 -0.24414,-1.57226 -0.24414,-4.16015 0,-0.66407 0.0195,-1.875 0.0195,-1.21094 0.0195,-1.71875 0,-2.10938 -0.23438,-2.91993 -3.78906,0.69336 -6.12305,1.53321 -2.32421,0.83007 -3.74023,1.71875 -1.41602,0.88867 -4.41406,3.02734 -0.0391,0.36133 -0.0391,1.03516 0,0.32226 0.0195,0.94726 0.0195,0.625 0.0195,0.97656 0,0.9961 -0.20508,1.875 -0.0781,0.88868 -0.60547,1.21094 -0.52734,0.32227 -1.43555,0.39063 -0.12695,0 -0.41015,0.0195 -0.28321,0.0195 -0.42969,0.0195 -0.80078,0 -1.2793,-0.72266 -0.32226,-0.97656 -0.32226,-2.4707 0,-0.82031 0.24414,-3.30078 0.24414,-2.49024 0.24414,-4.17969 v -1.5625 q 0,-1.49414 0.0391,-2.62695 0.0488,-1.13281 0.17578,-3.24219 0.12696,-2.10937 0.17578,-3.20312 0.0488,-1.10352 0.0488,-2.16797 0,-2.78321 -0.40039,-5.24414 -0.0879,-0.52735 -0.0879,-0.67383 0,-0.9082 0.46875,-1.28906 0.46875,-0.38086 1.41602,-0.67383 0.91797,-0.24414 1.24023,-0.24414 1.52344,0 1.52344,1.76758 0.0781,0.95703 0.0781,1.59179 0,1.24024 -0.0977,2.62696 -0.0977,1.37695 -0.33203,4.0625 -0.22461,2.68554 -0.32227,4.10156 -0.0879,1.40625 -0.0879,2.77344 0,1.24023 0.0391,1.79687 0.59571,-0.58594 3.41797,-1.78711 2.83203,-1.21094 6.04492,-2.32422 3.22266,-1.11328 5.09766,-1.48437 0,-0.98633 0.0195,-2.68555 0.0195,-1.69922 0.0195,-2.43164 0,-4.62891 -0.72265,-7.68555 0.18554,-0.98633 0.79101,-1.49414 0.61524,-0.50781 1.45508,-0.50781 1.37695,0 2.1582,1.24023 0.47852,2.07032 0.47852,4.16016 0,1.13281 -0.16602,3.13477 -0.15625,2.00195 -0.15625,3.18359 0,0.17578 0.0195,0.56641 0.0195,0.39062 0.0195,0.5957 0.11719,2.32422 0.13672,3.90625 0.0195,1.58203 0.0488,4.48242 0.0391,2.90039 0.0977,4.56055 0.0586,1.65039 0.23437,3.6914 z"
         style="text-align:center;text-anchor:middle"
         id="path2439" />
      <path
         d="m 170.42871,567.88218 q 0,0.69336 -1.49414,1.43555 -1.49414,0.74218 -3.71094,1.61132 -1.73828,0.66407 -3.22265,1.28907 -1.48438,0.61523 -2.2168,0.95703 -0.73242,0.3418 -2.35352,1.13281 -1.61132,0.78125 -2.52929,1.2207 -0.45899,0.19532 -0.87891,0.19532 -1.42578,0 -2.75391,-1.22071 -1.31835,-1.2207 -1.31835,-2.93945 0,-1.11328 0.18554,-3.45703 0.19531,-2.34375 0.28321,-3.48633 0.0879,-1.14258 0.0879,-2.73437 0,-7.40235 0.51757,-11.20118 -0.5957,-0.46875 -0.5957,-1.5625 0,-0.89843 0.50781,-1.8164 0.50782,-0.91797 1.49414,-1.50391 4.60938,-1.55273 6.61133,-1.99219 2.00196,-0.43945 5.41992,-0.60546 0.87891,-0.19532 1.52344,-0.19532 3.0957,0 3.91602,3.11524 0,0.73242 -0.83008,1.02539 -0.83008,0.29297 -2.01172,0.32226 -1.18164,0.0293 -2.23633,0.0488 -2.06054,0.0879 -4.17969,0.6836 -2.10937,0.58593 -5.17578,2.00195 -0.64453,1.36719 -0.64453,4.3164 0,1.60157 0.0781,2.48047 1.01562,-0.30273 3.36914,-1.10351 2.36328,-0.81055 3.96484,-1.20117 1.61133,-0.39063 3.59375,-0.57618 1.39649,0.12696 1.99219,0.33204 0.5957,0.19531 1.32812,1.1914 0.15625,0.3125 0.15625,0.47852 0,0.94726 -1.43554,1.60156 -1.19141,0.55664 -2.8418,1.13281 -1.65039,0.57617 -3.79883,1.33789 -2.13867,0.75196 -3.71094,1.54297 -1.57226,0.78125 -2.85156,1.82617 -0.20508,0.47852 -0.20508,1.24024 0,0.5664 0.13672,1.62109 0.14649,1.05469 0.18555,1.58203 0.10742,0.95703 1.5625,0.95703 1.80664,0 5.87891,-1.60156 1.09375,-0.41015 1.89453,-0.64453 0.81054,-0.24414 1.52343,-0.40039 0.72266,-0.15625 1.6211,-0.35156 0.6543,-0.12696 1.00586,-0.12696 0.86914,0 1.25,0.44922 0.38086,0.43946 0.9082,1.5918 z"
         style="text-align:center;text-anchor:middle"
         id="path2441" />
      <path
         d="m 206.98145,545.2064 q -0.22461,0.80078 -0.89844,3.22265 -0.67383,2.41211 -1.2793,4.4336 -0.5957,2.02148 -1.42578,4.46289 -0.99609,2.94922 -1.5918,5.17578 -0.58593,2.2168 -0.88867,4.0332 -0.30273,1.81641 -0.47851,3.86719 -0.0977,1.15234 -0.3711,1.81641 -0.26367,0.66406 -0.98633,1.10351 -0.68359,0.43946 -1.31836,0.43946 -0.81054,0 -1.75781,-0.71289 -0.18555,-0.70313 -0.78125,-3.11524 -0.5957,-2.41211 -1.25976,-4.53125 -0.49805,-1.54297 -1.06446,-3.49609 -0.5664,-1.95313 -0.85937,-2.86133 -0.29297,-0.91797 -0.79102,-2.07031 -0.49804,-1.16211 -1.21094,-2.41211 -1.06445,1.95312 -1.69921,3.74023 -0.625,1.77735 -1.42579,4.60938 -0.79101,2.82226 -1.34765,4.41406 -0.69336,1.95312 -1.06445,3.92578 -0.36133,1.96289 -0.60547,2.56836 -0.23438,0.60547 -1.13282,1.10352 -1.14257,0.60546 -1.88476,0.60546 -1.47461,0 -2.19727,-1.96289 -0.32226,-2.41211 -0.63476,-4.26757 -0.30274,-1.86524 -0.64453,-3.57422 -0.3418,-1.70899 -0.73243,-3.53516 -0.39062,-1.82617 -0.9082,-4.21875 -0.41016,-1.91406 -0.625,-3.11523 -0.21484,-1.20118 -0.43945,-2.75391 -0.21485,-1.55273 -0.45899,-2.93945 -0.0781,-0.46875 -0.0781,-0.71289 0,-1.06446 0.50781,-1.84571 0.50781,-0.79101 1.37695,-0.8789 2.45118,0 2.5586,2.11914 0.11719,2.71484 0.44922,5.80078 0.34179,3.08594 0.91797,6.08398 0.58593,2.98828 1.39648,5.36133 1.02539,-4.84375 3.32031,-11.08398 1.875,-5.03907 3.59375,-8.47657 0.55664,-1.12304 1.92383,-1.12304 0.68359,0 1.2207,0.33203 0.53711,0.33203 0.6543,0.86914 0.32227,1.34766 0.84961,3.78906 0.53711,2.44141 1.05469,4.57031 0.52734,2.11914 1.14258,4.27735 0.57617,2.04101 0.8789,2.7539 0.3125,0.71289 1.11328,2.16797 0.55664,-1.94336 1.29883,-4.86328 0.74219,-2.91992 1.2207,-4.61914 0.40039,-1.37695 0.69336,-2.53906 0.30274,-1.16211 0.70313,-2.91016 0.41015,-1.74804 0.48828,-2.1289 0.0879,-0.38086 0.51758,-2.2168 0.46875,-1.20117 3.28125,-1.20117 0.82031,0.0684 1.36719,0.44922 0.55664,0.38086 0.55664,1.11328 0,0.39062 -0.24414,0.95703 z"
         style="text-align:center;text-anchor:middle"
         id="path2443" />
      <path
         d="m 215.22363,554.80601 q -0.0488,1.1914 -0.23437,3.51562 -0.17578,2.31446 -0.23438,3.17383 -0.0488,0.84961 -0.0488,2.22656 0,0.19532 0.0195,0.625 0.0195,0.42969 0.0195,0.6543 0.0781,3.74023 0.2832,8.20313 -0.0879,1.00585 -0.45898,1.35742 -0.36133,0.36133 -1.38672,0.36133 -0.41016,-0.0391 -0.83985,-0.0977 -0.41992,-0.0488 -0.76172,-0.21484 -0.33203,-0.16602 -0.5664,-0.53711 -0.22461,-0.3711 -0.3125,-1.06446 0.0391,-3.02734 0.10742,-8.80859 0.0684,-5.79102 0.0977,-11.71875 0,-0.9668 0.11718,-2.54883 0.11719,-1.58203 0.11719,-2.24609 0,-1.26953 -0.27344,-2.44141 0,-1.94336 2.43164,-2.27539 0.50782,-0.0879 0.72266,-0.0879 0.47852,0 0.70313,0.24414 0.22461,0.23438 0.34179,0.87891 0.40039,1.83593 0.40039,4.3164 0,1.21094 -0.10742,3.39844 -0.10742,2.17773 -0.13672,3.08594 z"
         style="text-align:center;text-anchor:middle"
         id="path2445" />
      <path
         d="m 242.26465,545.4896 q 0.15625,0.58594 0.15625,1.2793 0,0.53711 -0.20508,1.93359 -0.19531,1.38672 -0.19531,2.66602 0,0.46875 0.0781,1.83594 0.32227,3.85742 0.32227,6.5625 0,0.83007 -0.0391,2.36328 -0.0391,1.5332 -0.0391,2.43164 0,2.4414 0.0781,4.08203 0.0195,0.39062 0.0684,1.11328 0.0488,0.72266 0.0488,1.04492 0,2.73438 -1.51368,3.56445 -1.30859,1.03516 -2.60742,1.03516 -0.74219,0 -1.07422,-0.40039 -0.79101,-0.66406 -1.76757,-2.24609 -0.97657,-1.5918 -2.33399,-3.78907 -1.35742,-2.20703 -2.66601,-3.75976 -1.05469,-1.28906 -1.92383,-2.22656 -0.85938,-0.94727 -2.00196,-2.15821 -1.13281,-1.21093 -1.68945,-1.8457 -0.54687,-0.63477 -1.10351,-1.40625 -0.0391,1.60156 -0.28321,3.04687 -0.23437,1.44532 -0.23437,3.14454 v 1.20117 q 0.0586,2.05078 0.36133,6.24023 0,2.64649 -1.88477,2.64649 -0.89844,0 -1.63086,-0.61524 -0.72266,-0.61523 -0.72266,-1.55273 0.01,-2.54883 0.0879,-4.16016 0.0879,-1.61133 0.24415,-3.39844 0.15625,-1.78711 0.2246,-3.39843 0.0781,-1.6211 0.0781,-4.4336 -0.0293,-2.71484 -0.11719,-3.6914 -0.0781,-0.97657 -0.47851,-2.91016 -0.11719,-0.41992 -0.11719,-0.80078 0,-1.01563 0.68359,-1.83594 0.69336,-0.83008 1.74805,-1.16211 0.36133,0 1.13281,-0.13672 0.78125,-0.14648 1.19141,-0.14648 0.68359,0 0.95703,0.2832 0.50781,0.47852 0.94727,1.72852 0.44921,1.24023 1.08398,3.10547 0.63477,1.85547 1.17187,2.76367 1.11329,1.88476 2.08985,3.19336 0.98633,1.30859 2.60742,3.28125 1.63086,1.96289 2.82227,3.50586 1.20117,1.54297 2.40234,3.45703 0.43945,-2.13867 0.43945,-5.03906 0,-1.69922 -0.21484,-4.6875 -0.20508,-2.98829 -0.22461,-4.58985 -0.0195,-1.28906 -0.27344,-3.45703 -0.24414,-2.17773 -0.24414,-3.54492 0,-2.36328 1.83594,-2.36328 1.02539,0 1.85547,0.63476 0.83984,0.625 0.86914,1.61133 z"
         style="text-align:center;text-anchor:middle"
         id="path2447" />
      <path
         d="m 273.45605,557.00327 q 0.32227,0.625 0.32227,1.52344 0,1.11328 -0.45898,2.05078 -0.45899,0.92774 -1.22071,1.06446 -0.5957,0.10742 -1.16211,0.16601 -0.55664,0.0488 -0.8789,0.11719 -0.32227,0.0586 -0.95703,0.2832 -0.89844,2.98828 -3.16407,6.11328 -2.27539,3.14453 -5.13672,4.83399 -2.85156,1.68945 -5.10742,2.08984 -1.31836,0.19531 -2.35351,0.19531 -2.5293,0 -4.41407,-1.03515 -1.875,-1.03516 -2.70507,-3.11524 -0.6836,-1.68945 -0.6836,-4.40429 0,-4.14063 1.31836,-7.40235 1.55274,-3.88672 4.67774,-8.03711 3.13476,-4.15039 6.48437,-6.44531 3.06641,-2.08008 5.87891,-2.08008 0.70312,0 1.35742,0.12696 1.48437,0.24414 2.13867,0.54687 0.6543,0.30273 1.38672,1.36719 0.80078,1.25976 0.80078,1.76758 0,0.27343 -0.15625,0.48828 -0.15625,0.20508 -0.49805,0.48828 -0.33203,0.27344 -0.70312,0.61523 -1.45508,1.40625 -2.16797,1.40625 -0.24414,0 -0.40039,-0.14648 -0.14648,-0.14649 -0.41016,-0.53711 -0.2539,-0.40039 -0.48828,-0.66406 -0.22461,-0.26368 -0.53711,-0.41016 -0.39062,-0.16602 -0.83984,-0.16602 -0.9082,0 -2.16797,0.51758 -1.25,0.50782 -2.85156,1.72852 -1.5918,1.2207 -3.33985,3.23242 -0.9375,1.05469 -2.30468,3.26172 -1.36719,2.20703 -2.38282,4.47266 -1.01562,2.26562 -1.07421,3.63281 0,2.90039 0.9375,4.11133 0.94726,1.20117 2.97851,1.20117 5.69336,-0.10742 10.04883,-4.23828 2.19727,-2.12891 2.55859,-3.39844 -1.72851,0.17578 -2.32422,0.38086 -0.5957,0.20508 -1.12304,0.40039 -0.51758,0.19531 -2.15821,0.3418 -0.80078,-0.17579 -1.20117,-0.9375 -0.40039,-0.77149 -0.40039,-1.74805 0,-1.11328 0.43946,-1.75781 0.5664,-0.43946 1.28906,-0.52735 0.72265,-0.0879 2.22656,-0.21484 1.51367,-0.13672 3.125,-0.57617 3.89648,-1.08399 6.36719,-1.08399 1.21094,0 1.43554,0.40039 z"
         style="text-align:center;text-anchor:middle"
         id="path2449" />
      <path
         d="m 144.63281,595.72398 q -0.18554,2.37304 -1.24023,2.72461 -0.84961,0.29296 -3.60352,0.34179 -2.7539,0.0488 -3.98437,0.12696 -1.22071,0.0781 -2.37305,0.5664 -0.36133,2.60742 -0.64453,7.23633 -0.27344,4.61914 -0.27344,8.92578 0,4.6582 0.40039,7.36328 -0.15625,1.08399 -0.51758,1.57227 -0.36132,0.48828 -1.12304,0.54687 -0.80078,0 -1.26953,-0.3125 -0.46875,-0.3125 -0.73243,-1.21093 -0.22461,-4.54102 -0.35156,-8.33008 -0.12695,-3.79883 -0.12695,-7.03125 0,-5 0.32226,-8.07617 -1.91406,0.11718 -2.82226,0.2539 -0.9082,0.13672 -1.93359,0.3711 -1.0254,0.22461 -1.71875,0.33203 -0.86915,0 -1.55274,-0.95703 -0.69336,-0.9668 -0.69336,-1.67969 0,-0.83008 0.22461,-1.16211 0.21484,-0.3418 1.13281,-0.95703 0.87891,-0.27344 2.5,-0.60547 1.63086,-0.3418 3.52539,-0.68359 1.89453,-0.3418 3.97461,-0.7129 5.74219,-1.04492 9.28711,-1.04492 1.61133,0 3.35938,0.24414 0.36133,0.32227 0.36133,0.95703 0,0.21485 -0.0586,0.57618 -0.0488,0.36132 -0.0684,0.625 z"
         style="text-align:center;text-anchor:middle"
         id="path2451" />
      <path
         d="m 168.94922,622.40366 q 0,3.08594 -1.99219,3.08594 -0.33203,0.0781 -0.48828,0.0781 -0.61523,0 -1.04492,-0.43946 -0.42969,-0.43945 -0.42969,-1.04492 -0.24414,-1.57226 -0.24414,-4.16015 0,-0.66407 0.0195,-1.875 0.0195,-1.21094 0.0195,-1.71875 0,-2.10938 -0.23437,-2.91993 -3.78907,0.69336 -6.12305,1.53321 -2.32422,0.83007 -3.74023,1.71875 -1.41602,0.88867 -4.41407,3.02734 -0.0391,0.36133 -0.0391,1.03516 0,0.32226 0.0195,0.94726 0.0195,0.625 0.0195,0.97656 0,0.9961 -0.20507,1.875 -0.0781,0.88868 -0.60547,1.21094 -0.52735,0.32227 -1.43555,0.39063 -0.12695,0 -0.41016,0.0195 -0.2832,0.0195 -0.42968,0.0195 -0.80079,0 -1.2793,-0.72266 -0.32227,-0.97656 -0.32227,-2.4707 0,-0.82031 0.24414,-3.30078 0.24414,-2.49024 0.24414,-4.17969 v -1.5625 q 0,-1.49414 0.0391,-2.62695 0.0488,-1.13281 0.17578,-3.24219 0.12695,-2.10937 0.17578,-3.20312 0.0488,-1.10352 0.0488,-2.16797 0,-2.78321 -0.40039,-5.24414 -0.0879,-0.52735 -0.0879,-0.67383 0,-0.9082 0.46875,-1.28906 0.46875,-0.38086 1.41601,-0.67383 0.91797,-0.24414 1.24024,-0.24414 1.52343,0 1.52343,1.76758 0.0781,0.95703 0.0781,1.59179 0,1.24024 -0.0977,2.62696 -0.0976,1.37695 -0.33203,4.0625 -0.22461,2.68554 -0.32226,4.10156 -0.0879,1.40625 -0.0879,2.77344 0,1.24023 0.0391,1.79687 0.5957,-0.58594 3.41797,-1.78711 2.83203,-1.21094 6.04492,-2.32422 3.22265,-1.11328 5.09765,-1.48437 0,-0.98633 0.0195,-2.68555 0.0195,-1.69922 0.0195,-2.43164 0,-4.62891 -0.72266,-7.68555 0.18555,-0.98633 0.79102,-1.49414 0.61523,-0.50781 1.45507,-0.50781 1.37696,0 2.15821,1.24023 0.47851,2.07032 0.47851,4.16016 0,1.13281 -0.16601,3.13477 -0.15625,2.00195 -0.15625,3.18359 0,0.17578 0.0195,0.56641 0.0195,0.39062 0.0195,0.5957 0.11719,2.32422 0.13672,3.90625 0.0195,1.58203 0.0488,4.48242 0.0391,2.90039 0.0977,4.56055 0.0586,1.65039 0.23438,3.6914 z"
         style="text-align:center;text-anchor:middle"
         id="path2453" />
      <path
         d="m 198.35352,610.84116 q -1.64063,3.94532 -3.56446,6.35743 -1.91406,2.41211 -4.09179,3.77929 -2.17774,1.35742 -5.18555,2.47071 -3.0957,1.15234 -5.67383,1.15234 -4.15039,0 -6.44531,-2.95898 Q 171,618.55601 171,614.12241 q 0,-4.23828 2.19727,-8.79882 1.35742,-2.78321 3.36914,-5.16602 2.02148,-2.39258 4.48242,-4.07227 2.4707,-1.68945 5.06836,-2.32421 1.93359,-0.43946 3.59375,-0.43946 2.66601,0 4.75586,1.16211 2.08984,1.16211 3.125,3.72071 1.8457,4.33593 1.8457,7.48046 0,2.59766 -1.08398,5.15625 z m -2.63672,-9.0332 q -0.9668,-3.48633 -6.40625,-3.48633 -1.23047,0 -2.39258,0.12696 -1.5625,0.15625 -3.4082,0.9375 -1.84571,0.78125 -3.65235,2.19726 -1.79687,1.40625 -3.14453,3.4668 -1.33789,2.05078 -1.83594,4.59961 -0.16601,0.83984 -0.16601,1.75781 0,1.76758 0.625,3.33008 0.63476,1.55273 1.65039,2.64648 1.01562,1.09375 2.1289,1.50391 0.80079,0.19531 2.00196,0.19531 1.24023,0 2.67578,-0.27344 1.44531,-0.27343 2.96875,-0.94726 1.5332,-0.6836 2.96875,-1.85547 1.43555,-1.17188 2.54883,-2.88086 0.99609,-1.5332 1.80664,-3.16406 0.81054,-1.64063 1.27929,-3.28125 0.46875,-1.65039 0.46875,-3.23242 0,-0.80079 -0.11718,-1.64063 z"
         style="text-align:center;text-anchor:middle"
         id="path2455" />
      <path
         d="m 226.40039,601.52476 q -0.30273,2.49023 -0.9082,4.15039 -0.60547,1.66015 -1.46485,2.73437 -0.85937,1.07422 -2.30468,2.16797 -1.44532,1.09375 -2.44141,1.82617 1.21094,0.73243 2.19727,1.50391 0.98632,0.77148 1.8457,1.54297 0.86914,0.76172 1.96289,1.77734 1.09375,1.00586 1.74805,1.53321 1.32812,1.69921 1.32812,3.28125 0,1.64062 -1.32812,1.64062 -0.44922,0 -1.15235,-0.3125 -1.60156,-1.70898 -3.48633,-2.97851 -1.88476,-1.2793 -3.6914,-2.11915 -1.80664,-0.83984 -3.81836,-1.54296 -2.01172,-0.71289 -2.85156,-1.00586 -0.71289,0.11718 -2.56836,0.45898 -1.85547,0.33203 -2.66602,0.41992 -0.16601,1.09375 -0.16601,2.00196 0,0.82031 0.21484,1.76757 0.22461,0.94727 0.22461,1.66993 0,0.5664 -0.0391,0.92773 -0.625,1.63086 -2.31446,1.63086 -0.78125,0 -1.33789,-0.39063 -0.54687,-0.39062 -0.54687,-1.00585 -0.32227,-1.08399 -0.32227,-3.24219 0.0684,-1.79688 0.12695,-3.40821 0.0586,-1.62109 0.0781,-3.10546 0.0488,-3.05664 0.10742,-5.20508 0.0586,-2.14844 0.10742,-4.39453 0.0586,-2.25586 0.0684,-3.72071 -1.20117,-0.23437 -1.92383,-2.36328 -0.2832,-0.81054 -0.2832,-1.27929 0,-0.43946 0.22461,-0.6836 0.23438,-0.2539 0.86914,-0.58594 0.64453,-0.33203 0.9082,-0.48828 0.39063,-0.2539 1.25,-0.47851 0.85938,-0.22461 1.34766,-0.32227 3.67188,-0.68359 7.00195,-0.68359 3.56446,0 9.56055,0.96679 1.23047,0.18555 2.26563,1.15235 1.03515,0.95703 1.62109,2.39258 0.5957,1.43554 0.5957,2.92968 0,0.55664 -0.0391,0.83985 z m -3.79883,0.72265 q 0.0781,-0.33203 0.0781,-0.43945 0,-0.68359 -0.67383,-1.35742 -0.67383,-0.67383 -1.58203,-1.12305 -0.89844,-0.44922 -1.54297,-0.51758 -0.55664,-0.0586 -1.97266,-0.23437 -1.40625,-0.18555 -2.4707,-0.27344 -1.05469,-0.0977 -1.92383,-0.0977 -2.90039,0 -5.47851,0.95703 -0.47852,2.76367 -0.47852,10.04882 v 1.91407 q 1.49414,-0.12696 4.46289,-0.9961 2.96875,-0.86914 4.41406,-1.67968 3.30078,-1.81641 4.95118,-3.29102 1.65039,-1.47461 2.21679,-2.91016 z"
         style="text-align:center;text-anchor:middle"
         id="path2457" />
      <path
         d="m 246,606.68101 q 0.19531,1.14258 0.19531,1.5625 0,0.625 -0.3125,1.8457 0,0.95703 -1.36719,1.36719 -1.35742,0.41015 -3.81835,0.66406 -2.45118,0.25391 -3.09571,0.44922 -0.47851,0.13672 -1.8457,0.60547 -1.35742,0.45898 -2.11914,0.66406 -0.76172,0.20508 -1.35742,0.20508 -0.83008,0 -1.31836,-0.43945 -0.6836,-1.25977 -0.6836,-2.8418 0,-0.83008 0.20508,-1.79688 0.49805,-0.58593 1.66016,-0.85937 1.16211,-0.2832 3.24219,-0.47852 2.08984,-0.19531 3.05664,-0.34179 0.89843,-0.14649 2.99804,-0.75196 2.10938,-0.60547 2.99805,-0.60547 1.12305,0 1.5625,0.75196 z"
         style="text-align:center;text-anchor:middle"
         id="path2459" />
      <path
         d="m 115.82422,660.84116 q -1.64063,3.94532 -3.56445,6.35743 -1.91407,2.41211 -4.0918,3.77929 -2.17774,1.35742 -5.18555,2.47071 -3.095701,1.15234 -5.673826,1.15234 -4.150391,0 -6.445313,-2.95898 -2.392578,-3.08594 -2.392578,-7.51954 0,-4.23828 2.197266,-8.79882 1.357422,-2.78321 3.36914,-5.16602 2.021485,-2.39258 4.482422,-4.07227 2.470699,-1.68945 5.068359,-2.32421 1.93359,-0.43946 3.59375,-0.43946 2.66602,0 4.75586,1.16211 2.08984,1.16211 3.125,3.72071 1.8457,4.33593 1.8457,7.48046 0,2.59766 -1.08398,5.15625 z m -2.63672,-9.0332 q -0.9668,-3.48633 -6.40625,-3.48633 -1.23047,0 -2.39258,0.12696 -1.5625,0.15625 -3.4082,0.9375 -1.845704,0.78125 -3.652345,2.19726 -1.796875,1.40625 -3.144531,3.4668 -1.337891,2.05078 -1.835938,4.59961 -0.166015,0.83984 -0.166015,1.75781 0,1.76758 0.625,3.33008 0.634765,1.55273 1.65039,2.64648 1.015625,1.09375 2.128906,1.50391 0.800782,0.19531 2.001954,0.19531 1.240234,0 2.675779,-0.27344 1.44531,-0.27343 2.96875,-0.94726 1.53321,-0.6836 2.96875,-1.85547 1.43555,-1.17188 2.54883,-2.88086 0.99609,-1.5332 1.80664,-3.16406 0.81055,-1.64063 1.2793,-3.28125 0.46875,-1.65039 0.46875,-3.23242 0,-0.80079 -0.11719,-1.64063 z"
         style="text-align:center;text-anchor:middle"
         id="path2461" />
      <path
         d="m 142.30859,670.05015 q 0,3.4375 -2.48047,3.4375 -0.82031,0 -1.49414,-0.43945 -0.67382,-0.43946 -0.82031,-1.16211 0,-0.21485 0.0781,-0.83985 0.0781,-0.625 0.0781,-1.08398 0,-0.55664 -0.0781,-0.87891 -0.9375,0.0977 -2.89063,1.00586 -1.95312,0.89844 -2.7539,1.43555 -1.26954,0.81054 -2.25586,1.27929 -0.98633,0.45899 -1.64063,0.67383 -0.64453,0.20508 -1.68945,0.47852 -1.04492,0.27344 -1.72852,0.52734 -0.60547,0.16602 -0.83984,0.16602 -1.04492,0 -2.2168,-0.67383 -1.17187,-0.68359 -1.98242,-1.72852 -0.80078,-1.05468 -0.88867,-2.08007 -0.0781,-1.21094 -0.0781,-1.5625 0,-0.71289 0.0684,-1.37696 0.0684,-0.66406 0.28321,-2.25586 0.21484,-1.60156 0.41015,-3.29101 0.26367,-2.02149 0.58594,-4.26758 0.32227,-2.25586 0.47852,-3.48633 0.16601,-1.24023 0.29296,-2.8418 0.12696,-1.60156 0.12696,-3.32031 0,-1.16211 0.53711,-2.5 0.53711,-1.33789 1.54297,-1.33789 0.45898,0 0.99609,0.36133 0.67383,0.40039 1.05469,1.21094 0.38086,0.80078 0.38086,2.66601 -0.0977,0.75196 -0.72266,3.30078 -0.625,2.53907 -1.01563,4.90235 -0.38085,2.36328 -0.38085,5.27344 0,2.98828 0.48828,5.80078 0.29297,0.60547 1.35742,0.60547 0.99609,0 2.5293,-0.46875 1.5332,-0.46875 4.24804,-1.50391 2.71485,-1.03516 3.89649,-1.45508 1.18164,-0.41992 2.20703,-0.57617 0,-4.96094 0.0391,-8.11524 v -3.48632 q 0,-4.19922 -0.43945,-6.43555 -0.0781,-0.48828 -0.0781,-0.68359 0,-1.71875 1.63086,-1.71875 1.11328,0 2.08008,0.83007 0.9668,0.82032 0.9668,2.08985 -0.0879,2.10937 -0.21485,4.3164 -0.11719,2.20704 -0.17578,3.71094 -0.0488,1.50391 -0.0488,3.21289 0,0.3711 0.0195,1.2793 0.0195,0.9082 0.0195,1.44531 0,1.70899 -0.0586,3.52539 -0.0586,1.81641 -0.0586,2.27539 0,1.69922 0.63476,3.75977 z"
         style="text-align:center;text-anchor:middle"
         id="path2463" />
      <path
         d="m 173.66602,657.00327 q 0.32226,0.625 0.32226,1.52344 0,1.11328 -0.45898,2.05078 -0.45899,0.92774 -1.22071,1.06446 -0.5957,0.10742 -1.16211,0.16601 -0.55664,0.0488 -0.8789,0.11719 -0.32227,0.0586 -0.95703,0.2832 -0.89844,2.98828 -3.16407,6.11328 -2.27539,3.14453 -5.13671,4.83399 -2.85157,1.68945 -5.10743,2.08984 -1.31836,0.19531 -2.35351,0.19531 -2.5293,0 -4.41406,-1.03515 -1.875,-1.03516 -2.70508,-3.11524 -0.6836,-1.68945 -0.6836,-4.40429 0,-4.14063 1.31836,-7.40235 1.55274,-3.88672 4.67774,-8.03711 3.13476,-4.15039 6.48437,-6.44531 3.06641,-2.08008 5.87891,-2.08008 0.70312,0 1.35742,0.12696 1.48438,0.24414 2.13867,0.54687 0.6543,0.30273 1.38672,1.36719 0.80078,1.25976 0.80078,1.76758 0,0.27343 -0.15625,0.48828 -0.15625,0.20508 -0.49804,0.48828 -0.33204,0.27344 -0.70313,0.61523 -1.45508,1.40625 -2.16797,1.40625 -0.24414,0 -0.40039,-0.14648 -0.14648,-0.14649 -0.41016,-0.53711 -0.2539,-0.40039 -0.48828,-0.66406 -0.22461,-0.26368 -0.53711,-0.41016 -0.39062,-0.16602 -0.83984,-0.16602 -0.9082,0 -2.16797,0.51758 -1.25,0.50782 -2.85156,1.72852 -1.5918,1.2207 -3.33984,3.23242 -0.9375,1.05469 -2.30469,3.26172 -1.36719,2.20703 -2.38281,4.47266 -1.01563,2.26562 -1.07422,3.63281 0,2.90039 0.9375,4.11133 0.94726,1.20117 2.97851,1.20117 5.69336,-0.10742 10.04883,-4.23828 2.19727,-2.12891 2.55859,-3.39844 -1.72851,0.17578 -2.32421,0.38086 -0.59571,0.20508 -1.12305,0.40039 -0.51758,0.19531 -2.1582,0.3418 -0.80079,-0.17579 -1.20118,-0.9375 -0.40039,-0.77149 -0.40039,-1.74805 0,-1.11328 0.43946,-1.75781 0.5664,-0.43946 1.28906,-0.52735 0.72265,-0.0879 2.22656,-0.21484 1.51367,-0.13672 3.125,-0.57617 3.89649,-1.08399 6.36719,-1.08399 1.21094,0 1.43555,0.40039 z"
         style="text-align:center;text-anchor:middle"
         id="path2465" />
      <path
         d="m 200.25781,672.40366 q 0,3.08594 -1.99219,3.08594 -0.33203,0.0781 -0.48828,0.0781 -0.61523,0 -1.04492,-0.43946 -0.42969,-0.43945 -0.42969,-1.04492 -0.24414,-1.57226 -0.24414,-4.16015 0,-0.66407 0.0195,-1.875 0.0195,-1.21094 0.0195,-1.71875 0,-2.10938 -0.23438,-2.91993 -3.78906,0.69336 -6.12305,1.53321 -2.32421,0.83007 -3.74023,1.71875 -1.41602,0.88867 -4.41406,3.02734 -0.0391,0.36133 -0.0391,1.03516 0,0.32226 0.0195,0.94726 0.0195,0.625 0.0195,0.97656 0,0.9961 -0.20508,1.875 -0.0781,0.88868 -0.60547,1.21094 -0.52734,0.32227 -1.43555,0.39063 -0.12695,0 -0.41015,0.0195 -0.28321,0.0195 -0.42969,0.0195 -0.80078,0 -1.2793,-0.72266 -0.32226,-0.97656 -0.32226,-2.4707 0,-0.82031 0.24414,-3.30078 0.24414,-2.49024 0.24414,-4.17969 v -1.5625 q 0,-1.49414 0.0391,-2.62695 0.0488,-1.13281 0.17578,-3.24219 0.12696,-2.10937 0.17578,-3.20312 0.0488,-1.10352 0.0488,-2.16797 0,-2.78321 -0.40039,-5.24414 -0.0879,-0.52735 -0.0879,-0.67383 0,-0.9082 0.46875,-1.28906 0.46875,-0.38086 1.41602,-0.67383 0.91796,-0.24414 1.24023,-0.24414 1.52344,0 1.52344,1.76758 0.0781,0.95703 0.0781,1.59179 0,1.24024 -0.0976,2.62696 -0.0977,1.37695 -0.33203,4.0625 -0.22461,2.68554 -0.32227,4.10156 -0.0879,1.40625 -0.0879,2.77344 0,1.24023 0.0391,1.79687 0.5957,-0.58594 3.41797,-1.78711 2.83203,-1.21094 6.04492,-2.32422 3.22266,-1.11328 5.09766,-1.48437 0,-0.98633 0.0195,-2.68555 0.0195,-1.69922 0.0195,-2.43164 0,-4.62891 -0.72266,-7.68555 0.18555,-0.98633 0.79102,-1.49414 0.61523,-0.50781 1.45508,-0.50781 1.37695,0 2.1582,1.24023 0.47852,2.07032 0.47852,4.16016 0,1.13281 -0.16602,3.13477 -0.15625,2.00195 -0.15625,3.18359 0,0.17578 0.0195,0.56641 0.0195,0.39062 0.0195,0.5957 0.11719,2.32422 0.13672,3.90625 0.0195,1.58203 0.0488,4.48242 0.0391,2.90039 0.0977,4.56055 0.0586,1.65039 0.23437,3.6914 z"
         style="text-align:center;text-anchor:middle"
         id="path2467" />
      <path
         d="m 223.06055,667.56968 q 0.52734,1.11328 0.52734,1.2793 0,0.35156 -0.40039,0.63476 -0.63477,0.46875 -1.67969,0.83985 -1.04492,0.37109 -2.98828,0.85937 -1.94336,0.48828 -2.69531,0.70313 -1.36719,0.37109 -2.43164,0.77148 -1.05469,0.39063 -2.03125,0.82031 -0.97656,0.42969 -1.37696,0.58594 -0.39062,0.14648 -0.80078,0.14648 -0.24414,0 -0.64453,-0.12695 -1.25976,-0.37109 -2.07031,-0.78125 -0.81055,-0.41992 -1.34766,-1.2793 -0.53711,-0.86914 -0.53711,-2.33398 0,-0.86914 0.15625,-1.71875 0.26368,-1.57227 0.3711,-3.34961 0.11719,-1.78711 0.19531,-4.51172 0.0879,-2.72461 0.11719,-3.30078 0.0781,-2.00195 0.0781,-5.12695 0,-3.39844 -0.11718,-4.59961 0,-3.27149 2.48046,-3.27149 1.96289,0.44922 1.96289,3.87696 0,0.77148 -0.12695,1.67968 -0.43945,3.91602 -0.60547,5.85938 -0.16601,1.94336 -0.23437,3.65234 -0.0684,1.69922 -0.0879,3.71094 -0.01,2.01172 -0.0293,5.53711 1.42578,0 3.10547,-0.40039 1.68945,-0.41016 4.30664,-1.19141 2.61719,-0.78125 3.86719,-1.00586 2.1582,0 3.03711,2.04102 z"
         style="text-align:center;text-anchor:middle"
         id="path2469" />
      <path
         d="m 249.53516,645.32359 q -0.48829,1.11328 -0.95704,1.74804 -0.46875,0.63477 -1.44531,1.84571 -0.96679,1.20117 -1.79687,2.49023 -2.8125,4.30664 -6.24024,11.35742 -0.53711,1.10352 -1.23047,2.53906 -0.69336,1.43555 -1.16211,2.65625 -0.45898,1.22071 -0.77148,2.59766 -0.3125,1.36719 -0.46875,3.04688 -0.0879,0.95703 -0.61523,1.57226 -0.51758,0.625 -1.3086,0.625 -0.20508,0 -0.5957,-0.0781 -1.47461,-0.44922 -2.06055,-1.07422 -0.58594,-0.61524 -0.58594,-1.60156 0.14649,-1.6211 0.70313,-3.28125 0.55664,-1.66993 1.30859,-3.36915 0.75196,-1.69921 1.70899,-3.87695 -0.69336,-1.32812 -2.17774,-3.73047 -1.48437,-2.40234 -3.22265,-5.02929 -1.72852,-2.63672 -3.07617,-4.55079 -0.64454,-0.89843 -0.64454,-1.68945 0,-1.13281 1.44532,-2.03125 0.44922,-0.2832 0.83984,-0.2832 0.35156,0 0.55664,0.27344 0.20508,0.27343 0.40039,0.83007 0.19531,0.55664 0.20508,0.57618 0.73242,0.8789 1.9043,2.89062 1.18164,2.00195 2.45117,3.90625 2.01172,3.00781 3.51562,4.52149 0.97657,-2.51954 3.60352,-6.80665 2.62695,-4.29687 5,-7.67578 0.53711,-0.71289 1.79687,-0.71289 1.14258,0 2.08985,0.52735 0.95703,0.52734 0.95703,1.30859 0,0.25391 -0.12695,0.47852 z"
         style="text-align:center;text-anchor:middle"
         id="path2471" />
      <path
         d="m 262.89453,642.52085 q -0.48828,2.33399 -0.82031,3.33985 -0.32227,0.99609 -1.12305,3.05664 -0.79101,2.06054 -1.41601,4.20898 -0.75196,2.59766 -1.25977,4.13086 -0.49805,1.52344 -1.02539,2.88086 -0.51758,1.35742 -1.39648,3.62305 -0.16602,0.44921 -0.51758,0.44921 -0.26367,0 -0.86914,-0.3125 -0.59571,-0.32226 -0.84961,-0.37109 0.2539,-2.4707 0.48828,-3.92578 0.24414,-1.46484 0.35156,-2.27539 0.0293,-0.26367 0.49805,-3.19336 0.46875,-2.93945 0.66406,-4.24805 0.46875,-2.8125 0.60547,-4.48242 0.14648,-1.67969 0.15625,-2.27539 0.50781,-0.76172 1.70898,-1.37695 1.21094,-0.625 2.36328,-0.625 1.71875,0 2.44141,1.39648 z m -5.75195,29.08203 q -0.61524,1.36719 -2.09961,2.32422 -1.48438,0.95703 -2.7832,0.95703 -0.7129,-0.0586 -1.22071,-0.9375 -0.49804,-0.8789 -0.49804,-1.86523 0,-0.48828 0.19531,-0.95703 0.43945,-0.98633 1.31836,-1.83594 0.8789,-0.85938 1.92383,-1.34766 1.04492,-0.49804 1.96289,-0.49804 0.625,0.0879 1.04492,0.89843 0.42969,0.81055 0.42969,1.82618 0,0.82031 -0.27344,1.43554 z"
         style="text-align:center;text-anchor:middle"
         id="path2473" />
      <path
         d="m 279.29102,642.52085 q -0.48829,2.33399 -0.82032,3.33985 -0.32226,0.99609 -1.12304,3.05664 -0.79102,2.06054 -1.41602,4.20898 -0.75195,2.59766 -1.25977,4.13086 -0.49804,1.52344 -1.02539,2.88086 -0.51757,1.35742 -1.39648,3.62305 -0.16602,0.44921 -0.51758,0.44921 -0.26367,0 -0.86914,-0.3125 -0.5957,-0.32226 -0.84961,-0.37109 0.25391,-2.4707 0.48828,-3.92578 0.24414,-1.46484 0.35157,-2.27539 0.0293,-0.26367 0.49804,-3.19336 0.46875,-2.93945 0.66406,-4.24805 0.46875,-2.8125 0.60547,-4.48242 0.14649,-1.67969 0.15625,-2.27539 0.50782,-0.76172 1.70899,-1.37695 1.21094,-0.625 2.36328,-0.625 1.71875,0 2.44141,1.39648 z m -5.75196,29.08203 q -0.61523,1.36719 -2.09961,2.32422 -1.48437,0.95703 -2.7832,0.95703 -0.71289,-0.0586 -1.2207,-0.9375 -0.49805,-0.8789 -0.49805,-1.86523 0,-0.48828 0.19531,-0.95703 0.43946,-0.98633 1.31836,-1.83594 0.87891,-0.85938 1.92383,-1.34766 1.04492,-0.49804 1.96289,-0.49804 0.625,0.0879 1.04492,0.89843 0.42969,0.81055 0.42969,1.82618 0,0.82031 -0.27344,1.43554 z"
         style="text-align:center;text-anchor:middle"
         id="path2475" />
    </g>
    <path
       style="fill:none;stroke:#000000;stroke-width:0.264583px;stroke-linecap:butt;stroke-linejoin:miter;stroke-opacity:1"
       d="m 168.31028,124.48348 c -0.002,0.0317 -4.41861,-0.89305 -9.86185,-2.06489 -5.44324,-1.17184 -9.8491,-2.14641 -9.8379,-2.17614 0.0116,-0.0296 4.42536,0.89461 9.86183,2.06499 5.43647,1.17038 9.83955,2.14429 9.83792,2.17604 z"
       id="path869"
       inkscape:path-effect="#path-effect885"
       inkscape:original-d="m 148.61052,120.2425 19.69975,4.24103"
       class="UnoptimicedTransforms"
       transform="translate(-2.5652181)" />
    <path
       style="fill:none;stroke:#000000;stroke-width:0.264583px;stroke-linecap:butt;stroke-linejoin:miter;stroke-opacity:1"
       d="m 156.10011,129.15613 c -0.008,0.0263 -1.89346,-0.74852 -4.13255,-1.73697 -0.004,-0.002 -0.5726,-0.25347 -0.57627,-0.25509 -2.58249,-1.14614 -4.6621,-2.10251 -4.64898,-2.12699 0.0168,-0.0309 2.11592,0.87839 4.6951,2.02307 0.009,0.004 0.56663,0.25175 0.57586,0.25585 2.23584,0.99431 4.09485,1.81383 4.08684,1.84013 z"
       id="path887"
       inkscape:path-effect="#path-effect903"
       inkscape:original-d="m 146.74229,125.03712 c 2.65221,1.17285 8.22352,3.66868 9.3578,4.11906"
       class="UnoptimicedTransforms"
       transform="translate(-2.5652181)" />
    <path
       style="fill:none;stroke:#000000;stroke-width:0.264583px;stroke-linecap:butt;stroke-linejoin:miter;stroke-opacity:1"
       d="m 164.84073,143.55877 c -0.0123,0.0293 -4.18679,-2.55012 -9.32123,-5.75972 -5.13443,-3.2096 -9.2819,-5.83228 -9.26091,-5.85621 0.0213,-0.0237 4.19313,2.55419 9.32118,5.7598 5.12805,3.20561 9.2729,5.82659 9.26096,5.85613 z"
       id="path905"
       inkscape:path-effect="#path-effect921"
       inkscape:original-d="m 146.25856,131.94288 18.58215,11.61593"
       class="UnoptimicedTransforms" />
    <path
       style="fill:none;stroke:#000000;stroke-width:0.264583px;stroke-linecap:butt;stroke-linejoin:miter;stroke-opacity:1"
       d="m 154.8324,140.62194 c -0.0147,0.0279 -2.43407,-1.5223 -5.40227,-3.46154 -2.9682,-1.93924 -5.35971,-3.53214 -5.34002,-3.5568 0.0199,-0.0245 2.4377,1.52479 5.40221,3.46162 2.96451,1.93683 5.35452,3.52868 5.34008,3.55672 z"
       id="path923"
       inkscape:path-effect="#path-effect939"
       inkscape:original-d="m 144.09008,133.60364 10.74229,7.01834"
       class="UnoptimicedTransforms" />
    <path
       style="fill:none;stroke:#000000;stroke-width:0.264583px;stroke-linecap:butt;stroke-linejoin:miter;stroke-opacity:1"
       d="m 154.13181,153.05418 c -0.0164,0.0271 -3.32324,-2.64035 -7.38378,-5.95624 -4.06053,-3.3159 -7.33509,-6.02285 -7.3118,-6.04439 0.0236,-0.0213 3.32823,2.64455 7.38372,5.95632 4.05549,3.31178 7.32799,6.01697 7.31186,6.04431 z"
       id="path941"
       inkscape:path-effect="#path-effect957"
       inkscape:original-d="m 139.4362,141.05359 14.69558,12.00063"
       class="UnoptimicedTransforms" />
    <path
       style="fill:none;stroke:#000000;stroke-width:0.264583px;stroke-linecap:butt;stroke-linejoin:miter;stroke-opacity:1"
       d="m 146.22523,156.47892 c -0.0222,0.0225 -2.1412,-2.55417 -4.73146,-5.7534 -2.59026,-3.19923 -4.66961,-5.80793 -4.64301,-5.825 0.0267,-0.0168 2.14434,2.55821 4.73138,5.75346 2.58704,3.19525 4.66511,5.80227 4.64309,5.82494 z"
       id="path959"
       inkscape:path-effect="#path-effect975"
       inkscape:original-d="m 136.85072,144.90055 9.37447,11.5784"
       class="UnoptimicedTransforms" />
    <path
       style="fill:none;stroke:#000000;stroke-width:0.264583px;stroke-linecap:butt;stroke-linejoin:miter;stroke-opacity:1"
       d="m 135.64975,153.99248 c -0.0273,0.0158 -1.04377,-2.03426 -2.26977,-4.57757 -1.22599,-2.54331 -2.19659,-4.61548 -2.16725,-4.62698 0.0294,-0.0113 1.0452,2.03746 2.26968,4.57761 1.22447,2.54015 2.19449,4.61099 2.16734,4.62694 z"
       id="path977"
       inkscape:path-effect="#path-effect993"
       inkscape:original-d="m 131.21268,144.78795 4.43703,9.20455"
       class="UnoptimicedTransforms" />
    <path
       style="fill:none;stroke:#000000;stroke-width:0.264583px;stroke-linecap:butt;stroke-linejoin:miter;stroke-opacity:1"
       d="m 134.1652,159.37822 c -0.0282,0.0143 -1.29221,-3.35744 -2.8224,-7.52888 -1.53019,-4.17144 -2.74634,-7.56077 -2.71555,-7.56807 0.0308,-0.007 1.29401,3.36266 2.8223,7.52891 1.52829,4.16626 2.74371,7.55342 2.71565,7.56804 z"
       id="path995"
       inkscape:path-effect="#path-effect1011"
       inkscape:original-d="m 128.6272,144.28128 5.53795,15.09696"
       class="UnoptimicedTransforms" />
    <path
       style="fill:none;stroke:#000000;stroke-width:0.264583px;stroke-linecap:butt;stroke-linejoin:miter;stroke-opacity:1"
       d="m 133.11432,162.46517 c -0.0283,0.0145 -1.4979,-4.24871 -3.28159,-9.5194 -1.78369,-5.27069 -3.20506,-9.55025 -3.17379,-9.55587 0.0314,-0.005 1.50002,4.25529 3.28149,9.51943 1.78147,5.26414 3.20198,9.54096 3.17389,9.55584 z"
       id="path1013"
       inkscape:path-effect="#path-effect1029"
       inkscape:original-d="m 126.65889,143.38991 6.45538,19.07528"
       class="UnoptimicedTransforms" />
    <path
       style="fill:none;stroke:#000000;stroke-width:0.264583px;stroke-linecap:butt;stroke-linejoin:miter;stroke-opacity:1"
       d="m 124.24026,157.96142 c -0.0303,0.009 -0.60822,-3.03527 -1.29035,-6.79708 -0.68214,-3.76182 -1.20987,-6.81496 -1.17838,-6.81739 0.0315,-0.002 0.60896,3.03996 1.29025,6.7971 0.68129,3.75714 1.20873,6.80833 1.17848,6.81737 z"
       id="path1031"
       inkscape:path-effect="#path-effect1047"
       inkscape:original-d="m 121.77148,144.34696 2.46873,13.61447"
       class="UnoptimicedTransforms" />
    <path
       style="fill:none;stroke:#000000;stroke-width:0.264583px;stroke-linecap:butt;stroke-linejoin:miter;stroke-opacity:1"
       d="m 118.55213,166.34029 c 0,0 0,3e-5 0,-4e-5 0,0 0,0 0,0 0,0 0,0 0,0 0,0 0,0 0,0 0,0 0,0 0,0 0,0 0,0 0,0 0,0 0,0 0,0 0,0 0,0 0,0 -8e-5,-7.1e-4 -6.8e-4,-0.006 -0.002,-0.0152 -0.002,-0.01 -0.005,-0.0235 -0.01,-0.0418 0,0 0,0 0,0 l 0,0 c -0.006,-0.0365 -0.0134,-0.0904 -0.0228,-0.1616 l 0,0 0,0 c -0.0183,-0.13902 -0.0435,-0.34339 -0.075,-0.60986 l 0,0 c -0.0609,-0.5144 -0.14494,-1.2539 -0.24757,-2.17683 l 0,0 c -0.19797,-1.78014 -0.45679,-4.16842 -0.72418,-6.66571 -3.4e-4,-0.003 -0.0408,-0.38106 -0.0411,-0.38423 -0.0656,-0.61334 -0.62181,-5.86184 -0.68739,-6.47518 -0.10433,-0.98869 -0.19134,-1.81489 -0.25504,-2.41875 0,0 0,0 0,0 -0.0808,-0.76506 -0.12928,-1.16733 -0.11994,-1.16756 0.009,-1e-4 0.0764,0.40299 0.17273,1.16142 0,0 0,0 0,0 0.0814,0.64045 0.17056,1.38846 0.28875,2.41535 0.21575,1.87456 0.45392,4.0406 0.71394,6.47263 2e-4,0.002 0.0408,0.38238 0.041,0.38424 0.26732,2.50672 0.51263,4.8778 0.69185,6.66927 l 0,0 c 0.0925,0.92436 0.16434,1.66446 0.21192,2.18061 l 0,0 c 0.0246,0.26727 0.0426,0.47227 0.0535,0.61213 l 0,0 0,0 c 0.006,0.0716 0.009,0.1259 0.0113,0.1628 l 0,0 c 0,0 0,0 0,0 -9.6e-4,0.0189 -9.9e-4,0.0332 -7.6e-4,0.0429 2.2e-4,0.01 7.1e-4,0.0147 7.8e-4,0.0154 0,0 0,0 0,0 0,0 0,0 0,0 0,0 0,0 0,0 0,0 0,0 0,0 0,0 0,0 0,0 0,0 0,0 0,0 0,0 0,0 0,0 0,0 0,0 0,0 0,0 0,0 0,0 0,0 0,0 0,0 0,0 0,0 0,0 0,0 0,0 0,0 0,0 0,0 0,0 0,0 0,0 0,0 0,0 0,0 0,0 0,0 0,0 0,0 0,0 0,0 0,0 0,0 0,0 0,0 0,4e-5 0,4e-5 0,4e-5 z"
       id="path1049"
       inkscape:path-effect="#path-effect1065"
       inkscape:original-d="m 116.36698,146.22353 c 0.18348,1.05087 2.18515,20.11676 2.18515,20.11676"
       class="UnoptimicedTransforms" />
    <path
       style="fill:none;stroke:#000000;stroke-width:0.264583px;stroke-linecap:butt;stroke-linejoin:miter;stroke-opacity:1"
       d="m 112.34701,163.54421 c -0.0314,0.004 -0.11286,-2.84491 -0.18199,-6.36043 -0.0691,-3.51552 -0.0997,-6.36502 -0.0682,-6.36267 0.0314,0.003 0.11284,2.84928 0.18189,6.36043 0.0691,3.51115 0.0996,6.35884 0.0683,6.36267 z"
       id="path1067"
       inkscape:path-effect="#path-effect1083"
       inkscape:original-d="m 112.09675,150.82111 0.25021,12.7231"
       class="UnoptimicedTransforms" />
    <path
       style="fill:none;stroke:#000000;stroke-width:0.264583px;stroke-linecap:butt;stroke-linejoin:miter;stroke-opacity:1"
       d="m 104.87412,168.245 c -0.0318,0.001 0.54053,-4.88881 1.27797,-10.91912 0.73744,-6.0303 1.36036,-10.9142 1.39092,-10.9053 0.0305,0.009 -0.54154,4.89629 -1.27807,10.91911 -0.73652,6.02281 -1.359,10.90361 -1.39082,10.90531 z"
       id="path1085"
       inkscape:path-effect="#path-effect1101"
       inkscape:original-d="M 107.54296,146.42057 104.87407,168.245"
       class="UnoptimicedTransforms" />
    <path
       style="fill:none;stroke:#000000;stroke-width:0.264583px;stroke-linecap:butt;stroke-linejoin:miter;stroke-opacity:1"
       d="m 103.45627,161.76148 c -0.0315,-0.002 0.42514,-3.0271 1.0197,-6.75521 0.59457,-3.72811 1.10157,-6.74537 1.13209,-6.73728 0.0304,0.008 -0.42598,3.03171 -1.0198,6.75519 -0.59383,3.72347 -1.10046,6.73883 -1.13199,6.7373 z"
       id="path1103"
       inkscape:path-effect="#path-effect1119"
       inkscape:original-d="m 105.60801,148.26898 -2.15179,13.49249"
       class="UnoptimicedTransforms" />
    <path
       style="fill:none;stroke:#000000;stroke-width:0.264583px;stroke-linecap:butt;stroke-linejoin:miter;stroke-opacity:1"
       d="m 87.10931,165.28004 c -0.03119,-0.006 1.584639,-4.46501 3.607993,-9.95607 2.023355,-5.49106 3.687002,-9.93222 3.714774,-9.91673 0.02759,0.0159 -1.587248,4.47181 -3.608087,9.95604 -2.02084,5.48423 -3.683388,9.92259 -3.71468,9.91676 z"
       id="path1121"
       inkscape:path-effect="#path-effect1137"
       inkscape:original-d="m 94.432031,145.40722 -7.322769,19.87281"
       class="UnoptimicedTransforms"
       transform="rotate(-6.380731,97.183481,147.69967)" />
    <path
       style="fill:none;stroke:#000000;stroke-width:0.264583px;stroke-linecap:butt;stroke-linejoin:miter;stroke-opacity:1"
       d="m 79.436239,152.76338 c -0.02566,-0.0184 1.815204,-2.17811 4.11049,-4.82253 2.295287,-2.64442 4.174642,-4.77076 4.196431,-4.74794 0.0216,0.023 -1.818133,2.18134 -4.110565,4.82247 -2.292434,2.64113 -4.170562,4.76615 -4.196356,4.748 z"
       id="path1139"
       inkscape:path-effect="#path-effect1155"
       inkscape:original-d="M 87.743124,143.19288 79.4362,152.76335"
       class="UnoptimicedTransforms"
       transform="rotate(-13.893064,81.611118,141.10124)" />
    <path
       style="fill:none;stroke:#000000;stroke-width:0.264583px;stroke-linecap:butt;stroke-linejoin:miter;stroke-opacity:1"
       d="m 70.445414,157.96146 c -0.02607,-0.0182 3.227552,-3.44372 7.265042,-7.64887 4.037492,-4.20514 7.327875,-7.59536 7.34713,-7.57005 0.01894,0.0256 -3.232642,3.44888 -7.265114,7.6488 -4.032473,4.19991 -7.320734,7.58801 -7.347058,7.57012 z"
       id="path1157"
       inkscape:path-effect="#path-effect1173"
       inkscape:original-d="M 85.057553,142.7425 70.445375,157.96143"
       class="UnoptimicedTransforms"
       transform="rotate(-13.893064,81.611118,141.10124)" />
    <path
       style="fill:none;stroke:#000000;stroke-width:0.264583px;stroke-linecap:butt;stroke-linejoin:miter;stroke-opacity:1"
       d="m 67.4429,147.20876 c -0.01843,-0.0256 2.426426,-1.4868 5.459152,-3.26271 3.032728,-1.77591 5.503341,-3.19312 5.516657,-3.16452 0.01308,0.0287 -2.430245,1.48893 -5.459202,3.26263 -3.028958,1.7737 -5.497979,3.19006 -5.516607,3.1646 z"
       id="path1193"
       inkscape:path-effect="#path-effect1209"
       inkscape:original-d="m 78.418686,140.78149 -10.975813,6.42723"
       class="UnoptimicedTransforms"
       transform="rotate(-16.153602,76.33434,139.24099)" />
    <path
       style="fill:none;stroke:#000000;stroke-width:0.264583px;stroke-linecap:butt;stroke-linejoin:miter;stroke-opacity:1"
       d="m 172.24687,113.56188 c 0.007,0.0312 -5.24792,0.23946 -11.73279,0.46502 -6.48488,0.22555 -11.74114,0.38288 -11.73676,0.35129 0.005,-0.0316 5.25599,-0.23965 11.7328,-0.46492 6.47682,-0.22527 11.72974,-0.38254 11.73675,-0.35139 z"
       id="path1211"
       inkscape:path-effect="#path-effect1227"
       inkscape:original-d="m 148.77732,114.37824 23.46956,-0.81631"
       class="UnoptimicedTransforms"
       transform="translate(-6.5954631)" />
    <path
       style="fill:none;stroke:#000000;stroke-width:0.264583px;stroke-linecap:butt;stroke-linejoin:miter;stroke-opacity:1"
       d="m 167.24271,107.68829 c 0,1e-5 2e-5,-5e-5 0,2.8e-4 0,0 0,0 0,0 0,0 0,0 0,0 0,0 0,0 0,0 0,0 0,0 0,0 0,0 0,0 0,0 0,0 0,0 0,0 0,0 0,0 0,0 0,0 0,0 0,0 0,0 0,0 0,0 0,0 0,0 0,0 0,0 0,0 0,0 0,0 0,0 0,0 0,0 0,0 0,0 -0.0165,0.0324 -3.43076,0.72212 -7.96155,1.60821 -0.3552,0.0673 -0.71229,0.13456 -1.07018,0.20145 -1.83616,0.34319 -3.47507,0.63556 -5.01945,0.88987 -2.48469,0.40938 -4.08208,0.54662 -4.0806,0.52783 0.002,-0.0188 1.58468,-0.19214 4.06483,-0.62122 1.57428,-0.2725 3.14564,-0.55898 5.01406,-0.90819 0.0561,-0.0105 1.01396,-0.19013 1.07008,-0.20062 4.5315,-0.87932 7.95499,-1.5217 7.9827,-1.49787 0,0 0,0 0,0 0,0 0,0 0,0 0,0 0,0 0,0 0,0 0,0 0,0 0,0 0,0 0,0 0,0 0,0 0,0 0,0 0,0 0,0 0,0 0,0 0,0 0,0 0,0 0,0 0,0 0,0 0,0 0,0 0,0 0,0 0,0 0,0 0,0 0,0 0,0 0,0 0,0 0,0 0,0 1e-4,2.1e-4 1.1e-4,2.5e-4 1.1e-4,2.6e-4 z"
       id="path1229"
       inkscape:path-effect="#path-effect1245"
       inkscape:original-d="m 149.11093,110.91598 c 2.95246,-0.16889 18.13178,-3.22769 18.13178,-3.22769"
       class="UnoptimicedTransforms"
       transform="translate(-6.5954631)" />
    <path
       style="fill:none;stroke:#000000;stroke-width:0.264583px;stroke-linecap:butt;stroke-linejoin:miter;stroke-opacity:1"
       d="m 158.48539,100.46348 c 0.0165,0.0269 -2.53833,1.30829 -5.70472,2.86124 -3.16639,1.55294 -5.74367,2.78858 -5.75483,2.75906 -0.0109,-0.0296 2.54231,-1.31013 5.70476,-2.86115 3.16245,-1.55101 5.73808,-2.78591 5.75479,-2.75915 z"
       id="path1247"
       inkscape:path-effect="#path-effect1263"
       inkscape:original-d="m 147.02586,106.08383 11.45955,-5.62031"
       class="UnoptimicedTransforms"
       transform="translate(-2.5652181)" />
    <path
       style="fill:none;stroke:#000000;stroke-width:0.264583px;stroke-linecap:butt;stroke-linejoin:miter;stroke-opacity:1"
       d="m 165.45786,93.773523 c 0.018,0.0261 -3.68327,1.920874 -8.26462,4.230852 -4.58136,2.309975 -8.30558,4.159245 -8.31586,4.129235 -0.01,-0.0301 3.68901,-1.92365 8.26467,-4.230759 4.57566,-2.307106 8.2975,-4.155234 8.31581,-4.129328 z"
       id="path1265"
       inkscape:path-effect="#path-effect1281"
       inkscape:original-d="m 148.8774,102.13366 16.58049,-8.360094"
       class="UnoptimicedTransforms"
       transform="translate(-2.5652181)" />
    <path
       style="fill:none;stroke:#000000;stroke-width:0.264583px;stroke-linecap:butt;stroke-linejoin:miter;stroke-opacity:1"
       d="m 153.49788,84.47516 c 0.0254,0.01866 -1.86792,2.182859 -4.22773,4.832463 -2.35981,2.649602 -4.29125,4.779905 -4.31272,4.756775 -0.0213,-0.02329 1.87093,-2.186085 4.22781,-4.832396 2.35688,-2.646309 4.28705,-4.775288 4.31264,-4.756842 z"
       id="path1283"
       inkscape:path-effect="#path-effect1299"
       inkscape:original-d="m 144.95747,94.064433 8.54045,-9.589241"
       class="UnoptimicedTransforms"
       transform="rotate(7.6872758,138.41373,82.448767)" />
    <path
       style="fill:none;stroke:#000000;stroke-width:0.264583px;stroke-linecap:butt;stroke-linejoin:miter;stroke-opacity:1"
       d="m 145.74142,77.400524 c 0.0292,0.01214 -1.70784,3.153064 -3.87868,7.013397 -2.17085,3.860331 -3.95232,6.976272 -3.97787,6.957616 -0.0254,-0.01891 1.71062,-3.157813 3.87876,-7.013348 2.16815,-3.855533 3.94845,-6.969516 3.97779,-6.957665 z"
       id="path1301"
       inkscape:path-effect="#path-effect1317"
       inkscape:original-d="m 137.88491,91.371564 7.85655,-13.971018"
       class="UnoptimicedTransforms"
       transform="rotate(7.6872758,138.41373,82.448767)" />
    <path
       style="fill:none;stroke:#000000;stroke-width:0.264583px;stroke-linecap:butt;stroke-linejoin:miter;stroke-opacity:1"
       d="m 142.70555,80.900316 c 0.0289,0.0126 -0.97574,1.976322 -2.24322,4.384817 -1.26748,2.408494 -2.3172,4.348482 -2.34393,4.331819 -0.0266,-0.01681 0.97741,-1.979268 2.24331,-4.38477 1.2659,-2.4055 2.31492,-4.344277 2.34384,-4.331866 z"
       id="path1337"
       inkscape:path-effect="#path-effect1353"
       inkscape:original-d="m 138.11844,89.616977 4.58716,-8.716639"
       class="UnoptimicedTransforms"
       transform="rotate(7.6872758,138.41373,82.448767)" />
    <path
       style="fill:none;stroke:#000000;stroke-width:0.264583px;stroke-linecap:butt;stroke-linejoin:miter;stroke-opacity:1"
       d="m 136.76726,72.849864 c 0.0309,0.0072 -1.32729,3.703436 -3.03262,8.253391 -1.70534,4.549954 -3.11121,8.228316 -3.13919,8.213451 -0.0278,-0.01517 1.32951,-3.709056 3.03272,-8.253356 1.70322,-4.544298 3.10815,-8.220339 3.13909,-8.213486 z"
       id="path1355"
       inkscape:path-effect="#path-effect1371"
       inkscape:original-d="m 130.5955,89.316726 6.17181,-16.466847"
       class="UnoptimicedTransforms" />
    <path
       style="fill:none;stroke:#000000;stroke-width:0.264583px;stroke-linecap:butt;stroke-linejoin:miter;stroke-opacity:1"
       d="m 126.82569,80.00897 c 0,10e-7 -4e-5,-5.6e-5 5.2e-4,2.07e-4 0,0 0,0 0,0 0,0 0,0 0,0 0,0 0,0 0,0 0,0 0,0 0,0 0,0 0,0 0,0 0,0 0,0 0,0 0,0 0,0 0,0 0,0 0,0 0,0 0,0 0,0 0,0 0,0 0,0 0,0 0,0 0,0 0,0 0,0 0,0 0,0 0,0 0,0 0,0 0,0 0,0 0,0 0,0 0,0 0,0 0,0 0,0 0,0 0,0 0,0 0,0 0,0 0,0 0,0 0,0 0,0 0,0 0,0 0,0 0,0 0,0 0,0 0,0 0,0 0,0 0,0 0,0 0,0 0,0 0,0 0,0 0,0 0,0 0,0 0,0 0,0 0,0 0,0 0,0 0,0 0,0 0.0244,0.02745 -0.2774,1.763484 -0.70008,4.027578 -0.002,0.01028 -0.0792,0.428936 -0.0811,0.439212 -0.0526,0.284379 -0.42377,2.276711 -0.47639,2.56109 -0.21795,1.168011 -0.34309,1.898403 -0.36099,1.894967 -0.0178,-0.0035 0.0726,-0.743805 0.26937,-1.911237 0.12979,-0.770244 0.28332,-1.631179 0.45623,-2.565618 8e-4,-0.0044 0.0809,-0.434838 0.0817,-0.439188 0.42835,-2.263238 0.77757,-3.990342 0.81023,-4.007008 0,0 0,0 0,0 0,0 0,0 0,0 0,0 0,-10e-7 0,-10e-7 0,0 0,0 0,0 0,0 0,0 0,0 0,0 0,0 0,0 5.1e-4,-3.3e-5 5.6e-4,-3e-6 5.6e-4,-2e-6 z"
       id="path1373"
       inkscape:path-effect="#path-effect1389"
       inkscape:original-d="m 125.20768,88.932032 c 0.15012,-1.219766 1.61801,-8.923062 1.61801,-8.923062"
       class="UnoptimicedTransforms" />
    <path
       style="fill:none;stroke:#000000;stroke-width:0.264583px;stroke-linecap:butt;stroke-linejoin:miter;stroke-opacity:1"
       d="m 124.10676,67.192037 c 1e-5,10e-7 -4e-5,-3.5e-5 2.8e-4,8.5e-5 0,0 0,0 0,0 0,0 0,0 0,0 0,0 0,0 0,0 0,0 0,0 0,0 0,0 0,0 0,0 0,0 0,0 0,0 0,0 0,0 0,0 0,0 0,0 0,0 0,0 0,0 0,0 0,0 0,0 0,0 0,0 0,0 0,0 0,0 0,0 0,0 0,0 0,0 0,0 0,0 0,0 0,0 0,0 0,0 0,0 0,0 0,0 0,0 0,0 0,0 0,0 0,0 0,0 0,0 0,0 0,0 0,0 0,0 0,0 0,0 0,0 0,0 0,0 0.0271,0.02556 -0.32242,3.441002 -0.80233,7.840992 5.2e-4,-0.0048 -0.0682,0.617248 -0.0677,0.612459 -0.20867,1.883537 -0.40478,3.600188 -0.58484,5.106561 -0.24675,2.064481 -0.43014,3.333752 -0.44709,3.32897 -0.0169,-0.005 0.13153,-1.274405 0.35713,-3.33926 -0.0584,0.534271 0.62015,-5.643009 0.56178,-5.108738 -0.001,0.0096 0.069,-0.621956 0.068,-0.612402 0.48417,-4.399383 0.88251,-7.809458 0.91448,-7.828644 0,0 0,0 0,0 0,0 0,0 0,0 0,0 0,0 0,0 0,0 0,0 0,0 0,0 0,0 0,0 0,0 0,0 0,0 0,0 0,0 0,0 0,0 0,0 0,0 0,0 0,0 0,0 0,0 0,0 0,0 0,0 0,0 0,0 0,0 0,0 0,0 0,0 0,0 0,0 0,0 0,0 0,0 2.4e-4,-3.4e-5 2.8e-4,-2.4e-5 2.9e-4,-2.3e-5 z"
       id="path1391"
       inkscape:path-effect="#path-effect1407"
       inkscape:original-d="m 122.20518,84.081114 c 0.25021,-1.660761 1.90158,-16.889077 1.90158,-16.889077"
       class="UnoptimicedTransforms" />
    <path
       style="fill:none;stroke:#000000;stroke-width:0.264583px;stroke-linecap:butt;stroke-linejoin:miter;stroke-opacity:1"
       d="m 117.38444,73.957051 c 0.0315,-0.0011 -0.12978,2.969235 -0.36023,6.632532 -0.23045,3.663297 -0.44264,6.630451 -0.4738,6.625388 -0.0311,-0.0053 0.13016,-2.973783 0.36033,-6.632526 0.23016,-3.658744 0.44217,-6.624015 0.4737,-6.625394 z"
       id="path1427"
       inkscape:path-effect="#path-effect1443"
       inkscape:original-d="m 116.55046,87.214976 0.83403,-13.257924"
       class="UnoptimicedTransforms"
       transform="translate(-0.52916663)" />
    <path
       style="fill:none;stroke:#000000;stroke-width:0.264583px;stroke-linecap:butt;stroke-linejoin:miter;stroke-opacity:1"
       d="m 114.44875,70.222689 c 0,0 0,-1.4e-5 0,5.8e-5 0,0 0,0 0,0 0,0 0,0 0,0 0,0 0,0 0,0 0,0 0,0 0,0 0,0 0,0 0,0 0,0 0,0 0,0 0,0 0,0 0,0 0,0 0,0 0,0 0,0 0,0 0,0 0,0 0,0 0,0 0,0 0,0 0,0 0,0 0,0 0,0 0,0 0,0 0,0 0,0 0,0 0,0 0,7.1e-4 3e-5,0.0047 7.2e-4,0.01189 7.1e-4,0.0073 0.002,0.01806 0.005,0.03216 0,0 0,0 0,0 l 0,0 c 0.002,0.02779 0.003,0.06866 0.004,0.122436 l 0,0 0,0 c 0.003,0.10504 0.004,0.259264 0.006,0.459961 l 0,0 c 0.003,0.38729 0.003,0.944885 0.002,1.639858 l 0,0 c -0.001,0.761674 -0.0158,4.274458 -0.017,5.036132 -2.6e-4,0.0742 -0.001,0.332825 -0.001,0.407027 -0.007,1.939423 -0.0101,3.280315 -0.004,4.831451 0.003,0.843784 0.008,1.335799 0.0184,1.892852 0,0 0,0 0,10e-7 0.0129,0.644676 0.0463,0.981389 0.0365,0.982148 -0.01,6.65e-4 -0.0632,-0.342733 -0.0921,-0.98034 0,0 0,0 0,0 -0.0238,-0.520697 -0.0386,-1.086345 -0.0514,-1.89378 -0.0229,-1.440519 -0.0277,-3.004137 -0.0212,-4.832736 2e-5,-0.0052 0.002,-0.401817 0.002,-0.407067 0.008,-1.903234 0.028,-3.685303 0.0501,-5.036413 l 0,0 c 0.0114,-0.695793 0.023,-1.251572 0.0338,-1.639605 l 0,0 c 0.006,-0.200782 0.0108,-0.35464 0.0157,-0.459751 l 0,0 0,0 c 0.002,-0.05375 0.005,-0.09456 0.007,-0.122314 l 0,0 c 0,0 0,0 0,0 0.003,-0.01404 0.005,-0.02471 0.006,-0.03205 8.6e-4,-0.0072 9.8e-4,-0.01116 0.001,-0.01187 0,0 0,0 0,0 0,0 0,0 0,0 0,0 0,0 0,0 0,0 0,0 0,0 0,0 0,0 0,0 0,0 0,0 0,0 0,-6e-5 0,-5.8e-5 0,-5.8e-5 z"
       id="path1445"
       inkscape:path-effect="#path-effect1461"
       inkscape:original-d="m 114.49875,85.638663 c -0.21684,-1.116558 -0.05,-15.415974 -0.05,-15.415974"
       class="UnoptimicedTransforms" />
    <path
       style="fill:none;stroke:#000000;stroke-width:0.264583px;stroke-linecap:butt;stroke-linejoin:miter;stroke-opacity:1"
       d="m 107.22598,73.600516 c 0.0304,-0.0085 0.53724,2.529002 1.1318,5.666008 0.59456,3.137005 1.05136,5.683995 1.01999,5.687198 -0.0314,0.003 -0.53788,-2.53292 -1.1317,-5.666026 -0.59382,-3.133106 -1.05037,-5.678469 -1.02009,-5.68718 z"
       id="path1463"
       inkscape:path-effect="#path-effect1479"
       inkscape:original-d="m 109.37782,84.953715 -2.15179,-11.35321"
       class="UnoptimicedTransforms" />
    <path
       style="fill:none;stroke:#000000;stroke-width:0.264583px;stroke-linecap:butt;stroke-linejoin:miter;stroke-opacity:1"
       d="m 97.267681,67.473542 c 0.02797,-0.01491 1.459994,3.747518 3.197589,8.401176 1.7376,4.653658 3.12188,8.433919 3.09098,8.440981 -0.031,0.0067 -1.46206,-3.753336 -3.1975,-8.40121 -1.73543,-4.647874 -3.118876,-8.425717 -3.091069,-8.440947 z"
       id="path1481"
       inkscape:path-effect="#path-effect1497"
       inkscape:original-d="M 103.5563,84.315685 97.267727,67.473522"
       class="UnoptimicedTransforms" />
    <path
       style="fill:none;stroke:#000000;stroke-width:0.264583px;stroke-linecap:butt;stroke-linejoin:miter;stroke-opacity:1"
       d="m 96.86735,76.87513 c 0.02737,-0.01553 0.842095,1.584719 1.819205,3.573217 0.977107,1.9885 1.746095,3.611228 1.717065,3.623405 -0.029,0.01202 -0.843216,-1.587234 -1.819111,-3.573261 -0.975893,-1.986028 -1.744427,-3.607705 -1.717159,-3.623361 z"
       id="path1499"
       inkscape:path-effect="#path-effect1515"
       inkscape:original-d="M 100.40367,84.071731 96.867394,76.875107"
       class="UnoptimicedTransforms" />
    <path
       style="fill:none;stroke:#000000;stroke-width:0.264583px;stroke-linecap:butt;stroke-linejoin:miter;stroke-opacity:1"
       d="m 83.789828,74.867185 c 6e-6,-6e-6 -5.7e-5,5e-6 2.86e-4,-1.62e-4 0,0 0,0 0,0 0,0 0,0 0,0 0,0 0,0 0,0 0,0 0,0 0,0 0,0 0,0 0,0 0,0 0,0 0,0 0,0 0,0 0,0 0.03651,-0.0016 1.98723,2.252097 4.536578,5.241287 -0.01167,-0.01379 0.561441,0.664888 0.549773,0.651094 1.035784,1.22909 1.956553,2.336524 2.799797,3.372829 1.316762,1.618031 2.088209,2.689329 2.071824,2.698073 -0.01646,0.0086 -0.812417,-1.034095 -2.14441,-2.638407 -0.891369,-1.073449 -1.739917,-2.084505 -2.814032,-3.359078 -0.05555,-0.06592 -0.493594,-0.585494 -0.549148,-0.651416 -2.544272,-2.99298 -4.458206,-5.278055 -4.450871,-5.313964 0,0 0,0 0,0 0,0 0,0 0,0 0,0 0,0 0,0 0,0 0,0 0,0 0,0 0,0 0,0 0,0 0,0 0,0 0,0 0,0 0,0 0,0 0,0 0,0 0,0 0,0 0,0 0,0 0,0 0,0 1.6e-4,-2.3e-4 1.98e-4,-2.52e-4 2.03e-4,-2.56e-4 z"
       id="path1517"
       inkscape:path-effect="#path-effect1533"
       inkscape:original-d="m 93.748129,86.83028 c -1.317766,-1.904712 -9.9583,-11.963096 -9.9583,-11.963096"
       class="UnoptimicedTransforms"
       transform="rotate(7.8771299,106.11347,80.941301)" />
    <path
       style="fill:none;stroke:#000000;stroke-width:0.264583px;stroke-linecap:butt;stroke-linejoin:miter;stroke-opacity:1"
       d="m 69.52791,75.702295 c 0.01855,-0.02586 3.50276,3.405969 7.77992,7.662963 4.277159,4.256995 7.725413,7.724945 7.699642,7.743621 -0.02604,0.01835 -3.508006,-3.411331 -7.779849,-7.663034 -4.271842,-4.251704 -7.717938,-7.717419 -7.699713,-7.74355 z"
       id="path1553"
       inkscape:path-effect="#path-effect1569"
       inkscape:original-d="M 85.00751,91.108846 69.527943,75.702257"
       class="UnoptimicedTransforms" />
    <path
       style="fill:none;stroke:#000000;stroke-width:0.264583px;stroke-linecap:butt;stroke-linejoin:miter;stroke-opacity:1"
       d="m 79.319402,81.55717 c 0.02085,-0.02363 1.723752,1.70463 3.802415,3.859052 2.078662,2.154424 3.744882,3.918072 3.72052,3.938068 -0.02448,0.01982 -1.726264,-1.707377 -3.802343,-3.859121 -2.076079,-2.151746 -3.741272,-3.914243 -3.720592,-3.937999 z"
       id="path1571"
       inkscape:path-effect="#path-effect1587"
       inkscape:original-d="M 86.842374,89.354257 79.319437,81.557134"
       class="UnoptimicedTransforms" />
    <path
       style="fill:none;stroke:#000000;stroke-width:0.264583px;stroke-linecap:butt;stroke-linejoin:miter;stroke-opacity:1"
       d="m 68.276875,87.290082 c 0.014,-0.02834 2.844055,1.752883 6.319248,3.977304 3.475191,2.224424 6.277766,4.048568 6.257897,4.073152 -0.02009,0.02439 -2.848321,-1.755733 -6.319194,-3.977389 -3.470872,-2.221659 -6.27169,-4.044607 -6.257951,-4.073067 z"
       id="path1589"
       inkscape:path-effect="#path-effect1605"
       inkscape:original-d="M 80.854049,95.340497 68.2769,87.290038"
       class="UnoptimicedTransforms" />
    <path
       style="fill:none;stroke:#000000;stroke-width:0.264583px;stroke-linecap:butt;stroke-linejoin:miter;stroke-opacity:1"
       d="m 72.280221,96.504015 c 0.009,-0.03017 1.728363,0.567782 3.839289,1.33518 2.110926,0.7674 3.812923,1.413253 3.800409,1.442131 -0.01265,0.02879 -1.730953,-0.568829 -3.839255,-1.335273 -2.108302,-0.766446 -3.809234,-1.411847 -3.800443,-1.442038 z"
       id="path1607"
       inkscape:path-effect="#path-effect1623"
       inkscape:original-d="m 79.919937,99.28128 -7.6397,-2.777312"
       class="UnoptimicedTransforms" />
    <path
       style="fill:none;stroke:#000000;stroke-width:0.264583px;stroke-linecap:butt;stroke-linejoin:miter;stroke-opacity:1"
       d="m 62.238528,100.7169 c 0.0026,-0.0316 3.754266,0.7377 8.377101,1.71769 4.622835,0.97999 8.363917,1.79911 8.353502,1.82902 -0.01073,0.0298 -3.759992,-0.73902 -8.377081,-1.71779 -4.617088,-0.97878 -8.355804,-1.79733 -8.353522,-1.82892 z"
       id="path1643"
       inkscape:path-effect="#path-effect1659"
       inkscape:original-d="M 78.969144,104.26356 62.238535,100.71685"
       class="UnoptimicedTransforms" />
    <path
       style="fill:none;stroke:#000000;stroke-width:0.264583px;stroke-linecap:butt;stroke-linejoin:miter;stroke-opacity:1"
       d="m 63.122603,107.55698 c -3.63e-4,-0.0316 3.0685,0.22038 6.852495,0.5626 3.783996,0.34222 6.848269,0.64493 6.842246,0.67593 -0.0063,0.0309 -3.073195,-0.2209 -6.852487,-0.5627 -3.779291,-0.34179 -6.841622,-0.64427 -6.842254,-0.67583 z"
       id="path1661"
       inkscape:path-effect="#path-effect1677"
       inkscape:original-d="M 76.817351,108.79546 63.122605,107.55693"
       class="UnoptimicedTransforms"
       transform="matrix(1.4664855,0.04529919,-0.06385031,1.0404117,-29.901864,-9.5683352)" />
    <path
       style="fill:none;stroke:#000000;stroke-width:0.264583px;stroke-linecap:butt;stroke-linejoin:miter;stroke-opacity:1"
       d="m 59.085922,138.52028 c -0.01125,-0.0297 4.22261,-1.00002 9.453834,-2.16667 5.231224,-1.16666 9.47618,-2.08725 9.478605,-2.0556 0.002,0.0317 -4.229135,1.00137 -9.453856,2.16657 -5.224722,1.16521 -9.466971,2.08526 -9.478583,2.0557 z"
       id="path1679"
       inkscape:path-effect="#path-effect1695"
       inkscape:original-d="m 78.018353,134.29796 -18.932445,4.22227"
       class="UnoptimicedTransforms"
       transform="rotate(-16.935406,73.409138,135.00575)" />
    <path
       style="fill:none;stroke:#000000;stroke-width:0.264583px;stroke-linecap:butt;stroke-linejoin:miter;stroke-opacity:1"
       d="m 67.392841,135.13308 c -0.0082,-0.0304 2.082326,-0.46512 4.66798,-0.97067 2.585653,-0.50555 4.685969,-0.89024 4.689816,-0.85898 0.0037,0.0313 -2.085559,0.46565 -4.667999,0.97057 -2.582439,0.50492 -4.681412,0.88941 -4.689797,0.85908 z"
       id="path1697"
       inkscape:path-effect="#path-effect1713"
       inkscape:original-d="m 76.750629,133.30338 -9.357799,1.82965"
       class="UnoptimicedTransforms"
       transform="rotate(-16.935406,73.409138,135.00575)" />
    <path
       style="fill:none;stroke:#000000;stroke-width:0.264583px;stroke-linecap:butt;stroke-linejoin:miter;stroke-opacity:1"
       d="m 63.105928,126.23817 c -0.0044,-0.0312 2.444452,-0.19743 5.467962,-0.37113 3.02351,-0.1737 5.475238,-0.28903 5.474489,-0.25752 -9.64e-4,0.0315 -2.448216,0.19754 -5.467968,0.37103 -3.019752,0.17349 -5.46992,0.28879 -5.474483,0.25762 z"
       id="path1733"
       inkscape:path-effect="#path-effect1749"
       inkscape:original-d="m 74.048378,125.60947 -10.942455,0.62865"
       class="UnoptimicedTransforms"
       transform="rotate(-4.8959778,72.455823,134.69685)" />
    <path
       style="fill:none;stroke:#000000;stroke-width:0.264583px;stroke-linecap:butt;stroke-linejoin:miter;stroke-opacity:1"
       d="m 55.866556,113.61828 c -8.33e-4,-0.0317 4.035874,0.37789 9.013603,0.91455 4.977728,0.53666 9.008972,0.99691 9.001404,1.02769 -0.0079,0.0307 -4.04205,-0.37866 -9.013592,-0.91465 -4.971541,-0.53599 -9.000229,-0.9959 -9.001415,-1.02759 z"
       id="path1751"
       transform="rotate(-4.3938213,68.070135,38.504495)"
       inkscape:original-d="M 73.881572,115.56047 55.866558,113.61823"
       inkscape:path-effect="#path-effect1767"
       class="UnoptimicedTransforms" />
    <path
       style="fill:none;stroke:#000000;stroke-width:0.264583px;stroke-linecap:butt;stroke-linejoin:miter;stroke-opacity:1"
       d="m 58.335285,117.8687 c -0.0038,-0.0314 3.058513,-0.11775 6.8379,-0.19294 3.779387,-0.0752 6.842727,-0.11063 6.840163,-0.0792 -0.0028,0.0314 -3.063213,0.11775 -6.837902,0.19284 -3.774689,0.0751 -6.836082,0.11056 -6.840161,0.0793 z"
       id="path1769"
       transform="rotate(-1.5998644,69.089761,-124.39912)"
       inkscape:original-d="m 72.013349,117.59655 -13.678067,0.2721"
       inkscape:path-effect="#path-effect1785"
       class="UnoptimicedTransforms" />
  </g>
</svg>
